[gd_scene format=2]

[node name="Node2D" type="Node2D"]

[node name="VBoxContainer" type="VBoxContainer" parent="."]
margin_left = 490.0
margin_top = 287.0
margin_right = 644.0
margin_bottom = 326.0

[node name="Label" type="Label" parent="VBoxContainer"]
margin_right = 154.0
margin_bottom = 31.0
text = "YOU LOST
Score: 0"
