[gd_scene load_steps=30 format=2]

[ext_resource path="res://sedan.tscn" type="PackedScene" id=1]
[ext_resource path="res://dusman.gd" type="Script" id=2]
[ext_resource path="res://Spatial.gd" type="Script" id=3]
[ext_resource path="res://healthrider.gd" type="Script" id=4]
[ext_resource path="res://maxhazirlikaaggaaa.glb" type="PackedScene" id=5]
[ext_resource path="res://bose.gd" type="Script" id=6]
[ext_resource path="res://Asphalt_New.material" type="Material" id=7]
[ext_resource path="res://Label.gd" type="Script" id=8]
[ext_resource path="res://PathFollow.gd" type="Script" id=11]
[ext_resource path="res://oyungibioyun.tscn" type="PackedScene" id=13]

[sub_resource type="BoxShape" id=5]

[sub_resource type="CubeMesh" id=6]
size = Vector3( 10000, 2, 10000 )

[sub_resource type="Skin" id=7]

[sub_resource type="SpatialMaterial" id=8]
albedo_color = Color( 0.6, 0.192157, 0.192157, 1 )

[sub_resource type="CubeMesh" id=16]

[sub_resource type="ConcavePolygonShape" id=17]
data = PoolVector3Array( -1, 1, 1, 1, 1, 1, -1, -1, 1, 1, 1, 1, 1, -1, 1, -1, -1, 1, 1, 1, -1, -1, 1, -1, 1, -1, -1, -1, 1, -1, -1, -1, -1, 1, -1, -1, 1, 1, 1, 1, 1, -1, 1, -1, 1, 1, 1, -1, 1, -1, -1, 1, -1, 1, -1, 1, -1, -1, 1, 1, -1, -1, -1, -1, 1, 1, -1, -1, 1, -1, -1, -1, 1, 1, 1, -1, 1, 1, 1, 1, -1, -1, 1, 1, -1, 1, -1, 1, 1, -1, -1, -1, 1, 1, -1, 1, -1, -1, -1, 1, -1, 1, 1, -1, -1, -1, -1, -1 )

[sub_resource type="CubeMesh" id=18]

[sub_resource type="ConcavePolygonShape" id=19]
data = PoolVector3Array( -1, 1, 1, 1, 1, 1, -1, -1, 1, 1, 1, 1, 1, -1, 1, -1, -1, 1, 1, 1, -1, -1, 1, -1, 1, -1, -1, -1, 1, -1, -1, -1, -1, 1, -1, -1, 1, 1, 1, 1, 1, -1, 1, -1, 1, 1, 1, -1, 1, -1, -1, 1, -1, 1, -1, 1, -1, -1, 1, 1, -1, -1, -1, -1, 1, 1, -1, -1, 1, -1, -1, -1, 1, 1, 1, -1, 1, 1, 1, 1, -1, -1, 1, 1, -1, 1, -1, 1, 1, -1, -1, -1, 1, 1, -1, 1, -1, -1, -1, 1, -1, 1, 1, -1, -1, -1, -1, -1 )

[sub_resource type="CylinderMesh" id=20]

[sub_resource type="ConcavePolygonShape" id=21]
data = PoolVector3Array( 0, 1, 1, 0.098, 1, 0.9952, 0, 0.6, 1, 0.098, 1, 0.9952, 0.098, 0.6, 0.9952, 0, 0.6, 1, 0.098, 1, 0.9952, 0.1951, 1, 0.9808, 0.098, 0.6, 0.9952, 0.1951, 1, 0.9808, 0.1951, 0.6, 0.9808, 0.098, 0.6, 0.9952, 0.1951, 1, 0.9808, 0.2903, 1, 0.9569, 0.1951, 0.6, 0.9808, 0.2903, 1, 0.9569, 0.2903, 0.6, 0.9569, 0.1951, 0.6, 0.9808, 0.2903, 1, 0.9569, 0.3827, 1, 0.9239, 0.2903, 0.6, 0.9569, 0.3827, 1, 0.9239, 0.3827, 0.6, 0.9239, 0.2903, 0.6, 0.9569, 0.3827, 1, 0.9239, 0.4714, 1, 0.8819, 0.3827, 0.6, 0.9239, 0.4714, 1, 0.8819, 0.4714, 0.6, 0.8819, 0.3827, 0.6, 0.9239, 0.4714, 1, 0.8819, 0.5556, 1, 0.8315, 0.4714, 0.6, 0.8819, 0.5556, 1, 0.8315, 0.5556, 0.6, 0.8315, 0.4714, 0.6, 0.8819, 0.5556, 1, 0.8315, 0.6344, 1, 0.773, 0.5556, 0.6, 0.8315, 0.6344, 1, 0.773, 0.6344, 0.6, 0.773, 0.5556, 0.6, 0.8315, 0.6344, 1, 0.773, 0.7071, 1, 0.7071, 0.6344, 0.6, 0.773, 0.7071, 1, 0.7071, 0.7071, 0.6, 0.7071, 0.6344, 0.6, 0.773, 0.7071, 1, 0.7071, 0.773, 1, 0.6344, 0.7071, 0.6, 0.7071, 0.773, 1, 0.6344, 0.773, 0.6, 0.6344, 0.7071, 0.6, 0.7071, 0.773, 1, 0.6344, 0.8315, 1, 0.5556, 0.773, 0.6, 0.6344, 0.8315, 1, 0.5556, 0.8315, 0.6, 0.5556, 0.773, 0.6, 0.6344, 0.8315, 1, 0.5556, 0.8819, 1, 0.4714, 0.8315, 0.6, 0.5556, 0.8819, 1, 0.4714, 0.8819, 0.6, 0.4714, 0.8315, 0.6, 0.5556, 0.8819, 1, 0.4714, 0.9239, 1, 0.3827, 0.8819, 0.6, 0.4714, 0.9239, 1, 0.3827, 0.9239, 0.6, 0.3827, 0.8819, 0.6, 0.4714, 0.9239, 1, 0.3827, 0.9569, 1, 0.2903, 0.9239, 0.6, 0.3827, 0.9569, 1, 0.2903, 0.9569, 0.6, 0.2903, 0.9239, 0.6, 0.3827, 0.9569, 1, 0.2903, 0.9808, 1, 0.1951, 0.9569, 0.6, 0.2903, 0.9808, 1, 0.1951, 0.9808, 0.6, 0.1951, 0.9569, 0.6, 0.2903, 0.9808, 1, 0.1951, 0.9952, 1, 0.098, 0.9808, 0.6, 0.1951, 0.9952, 1, 0.098, 0.9952, 0.6, 0.098, 0.9808, 0.6, 0.1951, 0.9952, 1, 0.098, 1, 1, 0, 0.9952, 0.6, 0.098, 1, 1, 0, 1, 0.6, 0, 0.9952, 0.6, 0.098, 1, 1, 0, 0.9952, 1, -0.098, 1, 0.6, 0, 0.9952, 1, -0.098, 0.9952, 0.6, -0.098, 1, 0.6, 0, 0.9952, 1, -0.098, 0.9808, 1, -0.1951, 0.9952, 0.6, -0.098, 0.9808, 1, -0.1951, 0.9808, 0.6, -0.1951, 0.9952, 0.6, -0.098, 0.9808, 1, -0.1951, 0.9569, 1, -0.2903, 0.9808, 0.6, -0.1951, 0.9569, 1, -0.2903, 0.9569, 0.6, -0.2903, 0.9808, 0.6, -0.1951, 0.9569, 1, -0.2903, 0.9239, 1, -0.3827, 0.9569, 0.6, -0.2903, 0.9239, 1, -0.3827, 0.9239, 0.6, -0.3827, 0.9569, 0.6, -0.2903, 0.9239, 1, -0.3827, 0.8819, 1, -0.4714, 0.9239, 0.6, -0.3827, 0.8819, 1, -0.4714, 0.8819, 0.6, -0.4714, 0.9239, 0.6, -0.3827, 0.8819, 1, -0.4714, 0.8315, 1, -0.5556, 0.8819, 0.6, -0.4714, 0.8315, 1, -0.5556, 0.8315, 0.6, -0.5556, 0.8819, 0.6, -0.4714, 0.8315, 1, -0.5556, 0.773, 1, -0.6344, 0.8315, 0.6, -0.5556, 0.773, 1, -0.6344, 0.773, 0.6, -0.6344, 0.8315, 0.6, -0.5556, 0.773, 1, -0.6344, 0.7071, 1, -0.7071, 0.773, 0.6, -0.6344, 0.7071, 1, -0.7071, 0.7071, 0.6, -0.7071, 0.773, 0.6, -0.6344, 0.7071, 1, -0.7071, 0.6344, 1, -0.773, 0.7071, 0.6, -0.7071, 0.6344, 1, -0.773, 0.6344, 0.6, -0.773, 0.7071, 0.6, -0.7071, 0.6344, 1, -0.773, 0.5556, 1, -0.8315, 0.6344, 0.6, -0.773, 0.5556, 1, -0.8315, 0.5556, 0.6, -0.8315, 0.6344, 0.6, -0.773, 0.5556, 1, -0.8315, 0.4714, 1, -0.8819, 0.5556, 0.6, -0.8315, 0.4714, 1, -0.8819, 0.4714, 0.6, -0.8819, 0.5556, 0.6, -0.8315, 0.4714, 1, -0.8819, 0.3827, 1, -0.9239, 0.4714, 0.6, -0.8819, 0.3827, 1, -0.9239, 0.3827, 0.6, -0.9239, 0.4714, 0.6, -0.8819, 0.3827, 1, -0.9239, 0.2903, 1, -0.9569, 0.3827, 0.6, -0.9239, 0.2903, 1, -0.9569, 0.2903, 0.6, -0.9569, 0.3827, 0.6, -0.9239, 0.2903, 1, -0.9569, 0.1951, 1, -0.9808, 0.2903, 0.6, -0.9569, 0.1951, 1, -0.9808, 0.1951, 0.6, -0.9808, 0.2903, 0.6, -0.9569, 0.1951, 1, -0.9808, 0.098, 1, -0.9952, 0.1951, 0.6, -0.9808, 0.098, 1, -0.9952, 0.098, 0.6, -0.9952, 0.1951, 0.6, -0.9808, 0.098, 1, -0.9952, 0, 1, -1, 0.098, 0.6, -0.9952, 0, 1, -1, 0, 0.6, -1, 0.098, 0.6, -0.9952, 0, 1, -1, -0.098, 1, -0.9952, 0, 0.6, -1, -0.098, 1, -0.9952, -0.098, 0.6, -0.9952, 0, 0.6, -1, -0.098, 1, -0.9952, -0.1951, 1, -0.9808, -0.098, 0.6, -0.9952, -0.1951, 1, -0.9808, -0.1951, 0.6, -0.9808, -0.098, 0.6, -0.9952, -0.1951, 1, -0.9808, -0.2903, 1, -0.9569, -0.1951, 0.6, -0.9808, -0.2903, 1, -0.9569, -0.2903, 0.6, -0.9569, -0.1951, 0.6, -0.9808, -0.2903, 1, -0.9569, -0.3827, 1, -0.9239, -0.2903, 0.6, -0.9569, -0.3827, 1, -0.9239, -0.3827, 0.6, -0.9239, -0.2903, 0.6, -0.9569, -0.3827, 1, -0.9239, -0.4714, 1, -0.8819, -0.3827, 0.6, -0.9239, -0.4714, 1, -0.8819, -0.4714, 0.6, -0.8819, -0.3827, 0.6, -0.9239, -0.4714, 1, -0.8819, -0.5556, 1, -0.8315, -0.4714, 0.6, -0.8819, -0.5556, 1, -0.8315, -0.5556, 0.6, -0.8315, -0.4714, 0.6, -0.8819, -0.5556, 1, -0.8315, -0.6344, 1, -0.773, -0.5556, 0.6, -0.8315, -0.6344, 1, -0.773, -0.6344, 0.6, -0.773, -0.5556, 0.6, -0.8315, -0.6344, 1, -0.773, -0.7071, 1, -0.7071, -0.6344, 0.6, -0.773, -0.7071, 1, -0.7071, -0.7071, 0.6, -0.7071, -0.6344, 0.6, -0.773, -0.7071, 1, -0.7071, -0.773, 1, -0.6344, -0.7071, 0.6, -0.7071, -0.773, 1, -0.6344, -0.773, 0.6, -0.6344, -0.7071, 0.6, -0.7071, -0.773, 1, -0.6344, -0.8315, 1, -0.5556, -0.773, 0.6, -0.6344, -0.8315, 1, -0.5556, -0.8315, 0.6, -0.5556, -0.773, 0.6, -0.6344, -0.8315, 1, -0.5556, -0.8819, 1, -0.4714, -0.8315, 0.6, -0.5556, -0.8819, 1, -0.4714, -0.8819, 0.6, -0.4714, -0.8315, 0.6, -0.5556, -0.8819, 1, -0.4714, -0.9239, 1, -0.3827, -0.8819, 0.6, -0.4714, -0.9239, 1, -0.3827, -0.9239, 0.6, -0.3827, -0.8819, 0.6, -0.4714, -0.9239, 1, -0.3827, -0.9569, 1, -0.2903, -0.9239, 0.6, -0.3827, -0.9569, 1, -0.2903, -0.9569, 0.6, -0.2903, -0.9239, 0.6, -0.3827, -0.9569, 1, -0.2903, -0.9808, 1, -0.1951, -0.9569, 0.6, -0.2903, -0.9808, 1, -0.1951, -0.9808, 0.6, -0.1951, -0.9569, 0.6, -0.2903, -0.9808, 1, -0.1951, -0.9952, 1, -0.098, -0.9808, 0.6, -0.1951, -0.9952, 1, -0.098, -0.9952, 0.6, -0.098, -0.9808, 0.6, -0.1951, -0.9952, 1, -0.098, -1, 1, 0, -0.9952, 0.6, -0.098, -1, 1, 0, -1, 0.6, 0, -0.9952, 0.6, -0.098, -1, 1, 0, -0.9952, 1, 0.098, -1, 0.6, 0, -0.9952, 1, 0.098, -0.9952, 0.6, 0.098, -1, 0.6, 0, -0.9952, 1, 0.098, -0.9808, 1, 0.1951, -0.9952, 0.6, 0.098, -0.9808, 1, 0.1951, -0.9808, 0.6, 0.1951, -0.9952, 0.6, 0.098, -0.9808, 1, 0.1951, -0.9569, 1, 0.2903, -0.9808, 0.6, 0.1951, -0.9569, 1, 0.2903, -0.9569, 0.6, 0.2903, -0.9808, 0.6, 0.1951, -0.9569, 1, 0.2903, -0.9239, 1, 0.3827, -0.9569, 0.6, 0.2903, -0.9239, 1, 0.3827, -0.9239, 0.6, 0.3827, -0.9569, 0.6, 0.2903, -0.9239, 1, 0.3827, -0.8819, 1, 0.4714, -0.9239, 0.6, 0.3827, -0.8819, 1, 0.4714, -0.8819, 0.6, 0.4714, -0.9239, 0.6, 0.3827, -0.8819, 1, 0.4714, -0.8315, 1, 0.5556, -0.8819, 0.6, 0.4714, -0.8315, 1, 0.5556, -0.8315, 0.6, 0.5556, -0.8819, 0.6, 0.4714, -0.8315, 1, 0.5556, -0.773, 1, 0.6344, -0.8315, 0.6, 0.5556, -0.773, 1, 0.6344, -0.773, 0.6, 0.6344, -0.8315, 0.6, 0.5556, -0.773, 1, 0.6344, -0.7071, 1, 0.7071, -0.773, 0.6, 0.6344, -0.7071, 1, 0.7071, -0.7071, 0.6, 0.7071, -0.773, 0.6, 0.6344, -0.7071, 1, 0.7071, -0.6344, 1, 0.773, -0.7071, 0.6, 0.7071, -0.6344, 1, 0.773, -0.6344, 0.6, 0.773, -0.7071, 0.6, 0.7071, -0.6344, 1, 0.773, -0.5556, 1, 0.8315, -0.6344, 0.6, 0.773, -0.5556, 1, 0.8315, -0.5556, 0.6, 0.8315, -0.6344, 0.6, 0.773, -0.5556, 1, 0.8315, -0.4714, 1, 0.8819, -0.5556, 0.6, 0.8315, -0.4714, 1, 0.8819, -0.4714, 0.6, 0.8819, -0.5556, 0.6, 0.8315, -0.4714, 1, 0.8819, -0.3827, 1, 0.9239, -0.4714, 0.6, 0.8819, -0.3827, 1, 0.9239, -0.3827, 0.6, 0.9239, -0.4714, 0.6, 0.8819, -0.3827, 1, 0.9239, -0.2903, 1, 0.9569, -0.3827, 0.6, 0.9239, -0.2903, 1, 0.9569, -0.2903, 0.6, 0.9569, -0.3827, 0.6, 0.9239, -0.2903, 1, 0.9569, -0.1951, 1, 0.9808, -0.2903, 0.6, 0.9569, -0.1951, 1, 0.9808, -0.1951, 0.6, 0.9808, -0.2903, 0.6, 0.9569, -0.1951, 1, 0.9808, -0.098, 1, 0.9952, -0.1951, 0.6, 0.9808, -0.098, 1, 0.9952, -0.098, 0.6, 0.9952, -0.1951, 0.6, 0.9808, -0.098, 1, 0.9952, 0, 1, 1, -0.098, 0.6, 0.9952, 0, 1, 1, 0, 0.6, 1, -0.098, 0.6, 0.9952, 0, 0.6, 1, 0.098, 0.6, 0.9952, 0, 0.2, 1, 0.098, 0.6, 0.9952, 0.098, 0.2, 0.9952, 0, 0.2, 1, 0.098, 0.6, 0.9952, 0.1951, 0.6, 0.9808, 0.098, 0.2, 0.9952, 0.1951, 0.6, 0.9808, 0.1951, 0.2, 0.9808, 0.098, 0.2, 0.9952, 0.1951, 0.6, 0.9808, 0.2903, 0.6, 0.9569, 0.1951, 0.2, 0.9808, 0.2903, 0.6, 0.9569, 0.2903, 0.2, 0.9569, 0.1951, 0.2, 0.9808, 0.2903, 0.6, 0.9569, 0.3827, 0.6, 0.9239, 0.2903, 0.2, 0.9569, 0.3827, 0.6, 0.9239, 0.3827, 0.2, 0.9239, 0.2903, 0.2, 0.9569, 0.3827, 0.6, 0.9239, 0.4714, 0.6, 0.8819, 0.3827, 0.2, 0.9239, 0.4714, 0.6, 0.8819, 0.4714, 0.2, 0.8819, 0.3827, 0.2, 0.9239, 0.4714, 0.6, 0.8819, 0.5556, 0.6, 0.8315, 0.4714, 0.2, 0.8819, 0.5556, 0.6, 0.8315, 0.5556, 0.2, 0.8315, 0.4714, 0.2, 0.8819, 0.5556, 0.6, 0.8315, 0.6344, 0.6, 0.773, 0.5556, 0.2, 0.8315, 0.6344, 0.6, 0.773, 0.6344, 0.2, 0.773, 0.5556, 0.2, 0.8315, 0.6344, 0.6, 0.773, 0.7071, 0.6, 0.7071, 0.6344, 0.2, 0.773, 0.7071, 0.6, 0.7071, 0.7071, 0.2, 0.7071, 0.6344, 0.2, 0.773, 0.7071, 0.6, 0.7071, 0.773, 0.6, 0.6344, 0.7071, 0.2, 0.7071, 0.773, 0.6, 0.6344, 0.773, 0.2, 0.6344, 0.7071, 0.2, 0.7071, 0.773, 0.6, 0.6344, 0.8315, 0.6, 0.5556, 0.773, 0.2, 0.6344, 0.8315, 0.6, 0.5556, 0.8315, 0.2, 0.5556, 0.773, 0.2, 0.6344, 0.8315, 0.6, 0.5556, 0.8819, 0.6, 0.4714, 0.8315, 0.2, 0.5556, 0.8819, 0.6, 0.4714, 0.8819, 0.2, 0.4714, 0.8315, 0.2, 0.5556, 0.8819, 0.6, 0.4714, 0.9239, 0.6, 0.3827, 0.8819, 0.2, 0.4714, 0.9239, 0.6, 0.3827, 0.9239, 0.2, 0.3827, 0.8819, 0.2, 0.4714, 0.9239, 0.6, 0.3827, 0.9569, 0.6, 0.2903, 0.9239, 0.2, 0.3827, 0.9569, 0.6, 0.2903, 0.9569, 0.2, 0.2903, 0.9239, 0.2, 0.3827, 0.9569, 0.6, 0.2903, 0.9808, 0.6, 0.1951, 0.9569, 0.2, 0.2903, 0.9808, 0.6, 0.1951, 0.9808, 0.2, 0.1951, 0.9569, 0.2, 0.2903, 0.9808, 0.6, 0.1951, 0.9952, 0.6, 0.098, 0.9808, 0.2, 0.1951, 0.9952, 0.6, 0.098, 0.9952, 0.2, 0.098, 0.9808, 0.2, 0.1951, 0.9952, 0.6, 0.098, 1, 0.6, 0, 0.9952, 0.2, 0.098, 1, 0.6, 0, 1, 0.2, 0, 0.9952, 0.2, 0.098, 1, 0.6, 0, 0.9952, 0.6, -0.098, 1, 0.2, 0, 0.9952, 0.6, -0.098, 0.9952, 0.2, -0.098, 1, 0.2, 0, 0.9952, 0.6, -0.098, 0.9808, 0.6, -0.1951, 0.9952, 0.2, -0.098, 0.9808, 0.6, -0.1951, 0.9808, 0.2, -0.1951, 0.9952, 0.2, -0.098, 0.9808, 0.6, -0.1951, 0.9569, 0.6, -0.2903, 0.9808, 0.2, -0.1951, 0.9569, 0.6, -0.2903, 0.9569, 0.2, -0.2903, 0.9808, 0.2, -0.1951, 0.9569, 0.6, -0.2903, 0.9239, 0.6, -0.3827, 0.9569, 0.2, -0.2903, 0.9239, 0.6, -0.3827, 0.9239, 0.2, -0.3827, 0.9569, 0.2, -0.2903, 0.9239, 0.6, -0.3827, 0.8819, 0.6, -0.4714, 0.9239, 0.2, -0.3827, 0.8819, 0.6, -0.4714, 0.8819, 0.2, -0.4714, 0.9239, 0.2, -0.3827, 0.8819, 0.6, -0.4714, 0.8315, 0.6, -0.5556, 0.8819, 0.2, -0.4714, 0.8315, 0.6, -0.5556, 0.8315, 0.2, -0.5556, 0.8819, 0.2, -0.4714, 0.8315, 0.6, -0.5556, 0.773, 0.6, -0.6344, 0.8315, 0.2, -0.5556, 0.773, 0.6, -0.6344, 0.773, 0.2, -0.6344, 0.8315, 0.2, -0.5556, 0.773, 0.6, -0.6344, 0.7071, 0.6, -0.7071, 0.773, 0.2, -0.6344, 0.7071, 0.6, -0.7071, 0.7071, 0.2, -0.7071, 0.773, 0.2, -0.6344, 0.7071, 0.6, -0.7071, 0.6344, 0.6, -0.773, 0.7071, 0.2, -0.7071, 0.6344, 0.6, -0.773, 0.6344, 0.2, -0.773, 0.7071, 0.2, -0.7071, 0.6344, 0.6, -0.773, 0.5556, 0.6, -0.8315, 0.6344, 0.2, -0.773, 0.5556, 0.6, -0.8315, 0.5556, 0.2, -0.8315, 0.6344, 0.2, -0.773, 0.5556, 0.6, -0.8315, 0.4714, 0.6, -0.8819, 0.5556, 0.2, -0.8315, 0.4714, 0.6, -0.8819, 0.4714, 0.2, -0.8819, 0.5556, 0.2, -0.8315, 0.4714, 0.6, -0.8819, 0.3827, 0.6, -0.9239, 0.4714, 0.2, -0.8819, 0.3827, 0.6, -0.9239, 0.3827, 0.2, -0.9239, 0.4714, 0.2, -0.8819, 0.3827, 0.6, -0.9239, 0.2903, 0.6, -0.9569, 0.3827, 0.2, -0.9239, 0.2903, 0.6, -0.9569, 0.2903, 0.2, -0.9569, 0.3827, 0.2, -0.9239, 0.2903, 0.6, -0.9569, 0.1951, 0.6, -0.9808, 0.2903, 0.2, -0.9569, 0.1951, 0.6, -0.9808, 0.1951, 0.2, -0.9808, 0.2903, 0.2, -0.9569, 0.1951, 0.6, -0.9808, 0.098, 0.6, -0.9952, 0.1951, 0.2, -0.9808, 0.098, 0.6, -0.9952, 0.098, 0.2, -0.9952, 0.1951, 0.2, -0.9808, 0.098, 0.6, -0.9952, 0, 0.6, -1, 0.098, 0.2, -0.9952, 0, 0.6, -1, 0, 0.2, -1, 0.098, 0.2, -0.9952, 0, 0.6, -1, -0.098, 0.6, -0.9952, 0, 0.2, -1, -0.098, 0.6, -0.9952, -0.098, 0.2, -0.9952, 0, 0.2, -1, -0.098, 0.6, -0.9952, -0.1951, 0.6, -0.9808, -0.098, 0.2, -0.9952, -0.1951, 0.6, -0.9808, -0.1951, 0.2, -0.9808, -0.098, 0.2, -0.9952, -0.1951, 0.6, -0.9808, -0.2903, 0.6, -0.9569, -0.1951, 0.2, -0.9808, -0.2903, 0.6, -0.9569, -0.2903, 0.2, -0.9569, -0.1951, 0.2, -0.9808, -0.2903, 0.6, -0.9569, -0.3827, 0.6, -0.9239, -0.2903, 0.2, -0.9569, -0.3827, 0.6, -0.9239, -0.3827, 0.2, -0.9239, -0.2903, 0.2, -0.9569, -0.3827, 0.6, -0.9239, -0.4714, 0.6, -0.8819, -0.3827, 0.2, -0.9239, -0.4714, 0.6, -0.8819, -0.4714, 0.2, -0.8819, -0.3827, 0.2, -0.9239, -0.4714, 0.6, -0.8819, -0.5556, 0.6, -0.8315, -0.4714, 0.2, -0.8819, -0.5556, 0.6, -0.8315, -0.5556, 0.2, -0.8315, -0.4714, 0.2, -0.8819, -0.5556, 0.6, -0.8315, -0.6344, 0.6, -0.773, -0.5556, 0.2, -0.8315, -0.6344, 0.6, -0.773, -0.6344, 0.2, -0.773, -0.5556, 0.2, -0.8315, -0.6344, 0.6, -0.773, -0.7071, 0.6, -0.7071, -0.6344, 0.2, -0.773, -0.7071, 0.6, -0.7071, -0.7071, 0.2, -0.7071, -0.6344, 0.2, -0.773, -0.7071, 0.6, -0.7071, -0.773, 0.6, -0.6344, -0.7071, 0.2, -0.7071, -0.773, 0.6, -0.6344, -0.773, 0.2, -0.6344, -0.7071, 0.2, -0.7071, -0.773, 0.6, -0.6344, -0.8315, 0.6, -0.5556, -0.773, 0.2, -0.6344, -0.8315, 0.6, -0.5556, -0.8315, 0.2, -0.5556, -0.773, 0.2, -0.6344, -0.8315, 0.6, -0.5556, -0.8819, 0.6, -0.4714, -0.8315, 0.2, -0.5556, -0.8819, 0.6, -0.4714, -0.8819, 0.2, -0.4714, -0.8315, 0.2, -0.5556, -0.8819, 0.6, -0.4714, -0.9239, 0.6, -0.3827, -0.8819, 0.2, -0.4714, -0.9239, 0.6, -0.3827, -0.9239, 0.2, -0.3827, -0.8819, 0.2, -0.4714, -0.9239, 0.6, -0.3827, -0.9569, 0.6, -0.2903, -0.9239, 0.2, -0.3827, -0.9569, 0.6, -0.2903, -0.9569, 0.2, -0.2903, -0.9239, 0.2, -0.3827, -0.9569, 0.6, -0.2903, -0.9808, 0.6, -0.1951, -0.9569, 0.2, -0.2903, -0.9808, 0.6, -0.1951, -0.9808, 0.2, -0.1951, -0.9569, 0.2, -0.2903, -0.9808, 0.6, -0.1951, -0.9952, 0.6, -0.098, -0.9808, 0.2, -0.1951, -0.9952, 0.6, -0.098, -0.9952, 0.2, -0.098, -0.9808, 0.2, -0.1951, -0.9952, 0.6, -0.098, -1, 0.6, 0, -0.9952, 0.2, -0.098, -1, 0.6, 0, -1, 0.2, 0, -0.9952, 0.2, -0.098, -1, 0.6, 0, -0.9952, 0.6, 0.098, -1, 0.2, 0, -0.9952, 0.6, 0.098, -0.9952, 0.2, 0.098, -1, 0.2, 0, -0.9952, 0.6, 0.098, -0.9808, 0.6, 0.1951, -0.9952, 0.2, 0.098, -0.9808, 0.6, 0.1951, -0.9808, 0.2, 0.1951, -0.9952, 0.2, 0.098, -0.9808, 0.6, 0.1951, -0.9569, 0.6, 0.2903, -0.9808, 0.2, 0.1951, -0.9569, 0.6, 0.2903, -0.9569, 0.2, 0.2903, -0.9808, 0.2, 0.1951, -0.9569, 0.6, 0.2903, -0.9239, 0.6, 0.3827, -0.9569, 0.2, 0.2903, -0.9239, 0.6, 0.3827, -0.9239, 0.2, 0.3827, -0.9569, 0.2, 0.2903, -0.9239, 0.6, 0.3827, -0.8819, 0.6, 0.4714, -0.9239, 0.2, 0.3827, -0.8819, 0.6, 0.4714, -0.8819, 0.2, 0.4714, -0.9239, 0.2, 0.3827, -0.8819, 0.6, 0.4714, -0.8315, 0.6, 0.5556, -0.8819, 0.2, 0.4714, -0.8315, 0.6, 0.5556, -0.8315, 0.2, 0.5556, -0.8819, 0.2, 0.4714, -0.8315, 0.6, 0.5556, -0.773, 0.6, 0.6344, -0.8315, 0.2, 0.5556, -0.773, 0.6, 0.6344, -0.773, 0.2, 0.6344, -0.8315, 0.2, 0.5556, -0.773, 0.6, 0.6344, -0.7071, 0.6, 0.7071, -0.773, 0.2, 0.6344, -0.7071, 0.6, 0.7071, -0.7071, 0.2, 0.7071, -0.773, 0.2, 0.6344, -0.7071, 0.6, 0.7071, -0.6344, 0.6, 0.773, -0.7071, 0.2, 0.7071, -0.6344, 0.6, 0.773, -0.6344, 0.2, 0.773, -0.7071, 0.2, 0.7071, -0.6344, 0.6, 0.773, -0.5556, 0.6, 0.8315, -0.6344, 0.2, 0.773, -0.5556, 0.6, 0.8315, -0.5556, 0.2, 0.8315, -0.6344, 0.2, 0.773, -0.5556, 0.6, 0.8315, -0.4714, 0.6, 0.8819, -0.5556, 0.2, 0.8315, -0.4714, 0.6, 0.8819, -0.4714, 0.2, 0.8819, -0.5556, 0.2, 0.8315, -0.4714, 0.6, 0.8819, -0.3827, 0.6, 0.9239, -0.4714, 0.2, 0.8819, -0.3827, 0.6, 0.9239, -0.3827, 0.2, 0.9239, -0.4714, 0.2, 0.8819, -0.3827, 0.6, 0.9239, -0.2903, 0.6, 0.9569, -0.3827, 0.2, 0.9239, -0.2903, 0.6, 0.9569, -0.2903, 0.2, 0.9569, -0.3827, 0.2, 0.9239, -0.2903, 0.6, 0.9569, -0.1951, 0.6, 0.9808, -0.2903, 0.2, 0.9569, -0.1951, 0.6, 0.9808, -0.1951, 0.2, 0.9808, -0.2903, 0.2, 0.9569, -0.1951, 0.6, 0.9808, -0.098, 0.6, 0.9952, -0.1951, 0.2, 0.9808, -0.098, 0.6, 0.9952, -0.098, 0.2, 0.9952, -0.1951, 0.2, 0.9808, -0.098, 0.6, 0.9952, 0, 0.6, 1, -0.098, 0.2, 0.9952, 0, 0.6, 1, 0, 0.2, 1, -0.098, 0.2, 0.9952, 0, 0.2, 1, 0.098, 0.2, 0.9952, 0, -0.2, 1, 0.098, 0.2, 0.9952, 0.098, -0.2, 0.9952, 0, -0.2, 1, 0.098, 0.2, 0.9952, 0.1951, 0.2, 0.9808, 0.098, -0.2, 0.9952, 0.1951, 0.2, 0.9808, 0.1951, -0.2, 0.9808, 0.098, -0.2, 0.9952, 0.1951, 0.2, 0.9808, 0.2903, 0.2, 0.9569, 0.1951, -0.2, 0.9808, 0.2903, 0.2, 0.9569, 0.2903, -0.2, 0.9569, 0.1951, -0.2, 0.9808, 0.2903, 0.2, 0.9569, 0.3827, 0.2, 0.9239, 0.2903, -0.2, 0.9569, 0.3827, 0.2, 0.9239, 0.3827, -0.2, 0.9239, 0.2903, -0.2, 0.9569, 0.3827, 0.2, 0.9239, 0.4714, 0.2, 0.8819, 0.3827, -0.2, 0.9239, 0.4714, 0.2, 0.8819, 0.4714, -0.2, 0.8819, 0.3827, -0.2, 0.9239, 0.4714, 0.2, 0.8819, 0.5556, 0.2, 0.8315, 0.4714, -0.2, 0.8819, 0.5556, 0.2, 0.8315, 0.5556, -0.2, 0.8315, 0.4714, -0.2, 0.8819, 0.5556, 0.2, 0.8315, 0.6344, 0.2, 0.773, 0.5556, -0.2, 0.8315, 0.6344, 0.2, 0.773, 0.6344, -0.2, 0.773, 0.5556, -0.2, 0.8315, 0.6344, 0.2, 0.773, 0.7071, 0.2, 0.7071, 0.6344, -0.2, 0.773, 0.7071, 0.2, 0.7071, 0.7071, -0.2, 0.7071, 0.6344, -0.2, 0.773, 0.7071, 0.2, 0.7071, 0.773, 0.2, 0.6344, 0.7071, -0.2, 0.7071, 0.773, 0.2, 0.6344, 0.773, -0.2, 0.6344, 0.7071, -0.2, 0.7071, 0.773, 0.2, 0.6344, 0.8315, 0.2, 0.5556, 0.773, -0.2, 0.6344, 0.8315, 0.2, 0.5556, 0.8315, -0.2, 0.5556, 0.773, -0.2, 0.6344, 0.8315, 0.2, 0.5556, 0.8819, 0.2, 0.4714, 0.8315, -0.2, 0.5556, 0.8819, 0.2, 0.4714, 0.8819, -0.2, 0.4714, 0.8315, -0.2, 0.5556, 0.8819, 0.2, 0.4714, 0.9239, 0.2, 0.3827, 0.8819, -0.2, 0.4714, 0.9239, 0.2, 0.3827, 0.9239, -0.2, 0.3827, 0.8819, -0.2, 0.4714, 0.9239, 0.2, 0.3827, 0.9569, 0.2, 0.2903, 0.9239, -0.2, 0.3827, 0.9569, 0.2, 0.2903, 0.9569, -0.2, 0.2903, 0.9239, -0.2, 0.3827, 0.9569, 0.2, 0.2903, 0.9808, 0.2, 0.1951, 0.9569, -0.2, 0.2903, 0.9808, 0.2, 0.1951, 0.9808, -0.2, 0.1951, 0.9569, -0.2, 0.2903, 0.9808, 0.2, 0.1951, 0.9952, 0.2, 0.098, 0.9808, -0.2, 0.1951, 0.9952, 0.2, 0.098, 0.9952, -0.2, 0.098, 0.9808, -0.2, 0.1951, 0.9952, 0.2, 0.098, 1, 0.2, 0, 0.9952, -0.2, 0.098, 1, 0.2, 0, 1, -0.2, 0, 0.9952, -0.2, 0.098, 1, 0.2, 0, 0.9952, 0.2, -0.098, 1, -0.2, 0, 0.9952, 0.2, -0.098, 0.9952, -0.2, -0.098, 1, -0.2, 0, 0.9952, 0.2, -0.098, 0.9808, 0.2, -0.1951, 0.9952, -0.2, -0.098, 0.9808, 0.2, -0.1951, 0.9808, -0.2, -0.1951, 0.9952, -0.2, -0.098, 0.9808, 0.2, -0.1951, 0.9569, 0.2, -0.2903, 0.9808, -0.2, -0.1951, 0.9569, 0.2, -0.2903, 0.9569, -0.2, -0.2903, 0.9808, -0.2, -0.1951, 0.9569, 0.2, -0.2903, 0.9239, 0.2, -0.3827, 0.9569, -0.2, -0.2903, 0.9239, 0.2, -0.3827, 0.9239, -0.2, -0.3827, 0.9569, -0.2, -0.2903, 0.9239, 0.2, -0.3827, 0.8819, 0.2, -0.4714, 0.9239, -0.2, -0.3827, 0.8819, 0.2, -0.4714, 0.8819, -0.2, -0.4714, 0.9239, -0.2, -0.3827, 0.8819, 0.2, -0.4714, 0.8315, 0.2, -0.5556, 0.8819, -0.2, -0.4714, 0.8315, 0.2, -0.5556, 0.8315, -0.2, -0.5556, 0.8819, -0.2, -0.4714, 0.8315, 0.2, -0.5556, 0.773, 0.2, -0.6344, 0.8315, -0.2, -0.5556, 0.773, 0.2, -0.6344, 0.773, -0.2, -0.6344, 0.8315, -0.2, -0.5556, 0.773, 0.2, -0.6344, 0.7071, 0.2, -0.7071, 0.773, -0.2, -0.6344, 0.7071, 0.2, -0.7071, 0.7071, -0.2, -0.7071, 0.773, -0.2, -0.6344, 0.7071, 0.2, -0.7071, 0.6344, 0.2, -0.773, 0.7071, -0.2, -0.7071, 0.6344, 0.2, -0.773, 0.6344, -0.2, -0.773, 0.7071, -0.2, -0.7071, 0.6344, 0.2, -0.773, 0.5556, 0.2, -0.8315, 0.6344, -0.2, -0.773, 0.5556, 0.2, -0.8315, 0.5556, -0.2, -0.8315, 0.6344, -0.2, -0.773, 0.5556, 0.2, -0.8315, 0.4714, 0.2, -0.8819, 0.5556, -0.2, -0.8315, 0.4714, 0.2, -0.8819, 0.4714, -0.2, -0.8819, 0.5556, -0.2, -0.8315, 0.4714, 0.2, -0.8819, 0.3827, 0.2, -0.9239, 0.4714, -0.2, -0.8819, 0.3827, 0.2, -0.9239, 0.3827, -0.2, -0.9239, 0.4714, -0.2, -0.8819, 0.3827, 0.2, -0.9239, 0.2903, 0.2, -0.9569, 0.3827, -0.2, -0.9239, 0.2903, 0.2, -0.9569, 0.2903, -0.2, -0.9569, 0.3827, -0.2, -0.9239, 0.2903, 0.2, -0.9569, 0.1951, 0.2, -0.9808, 0.2903, -0.2, -0.9569, 0.1951, 0.2, -0.9808, 0.1951, -0.2, -0.9808, 0.2903, -0.2, -0.9569, 0.1951, 0.2, -0.9808, 0.098, 0.2, -0.9952, 0.1951, -0.2, -0.9808, 0.098, 0.2, -0.9952, 0.098, -0.2, -0.9952, 0.1951, -0.2, -0.9808, 0.098, 0.2, -0.9952, 0, 0.2, -1, 0.098, -0.2, -0.9952, 0, 0.2, -1, 0, -0.2, -1, 0.098, -0.2, -0.9952, 0, 0.2, -1, -0.098, 0.2, -0.9952, 0, -0.2, -1, -0.098, 0.2, -0.9952, -0.098, -0.2, -0.9952, 0, -0.2, -1, -0.098, 0.2, -0.9952, -0.1951, 0.2, -0.9808, -0.098, -0.2, -0.9952, -0.1951, 0.2, -0.9808, -0.1951, -0.2, -0.9808, -0.098, -0.2, -0.9952, -0.1951, 0.2, -0.9808, -0.2903, 0.2, -0.9569, -0.1951, -0.2, -0.9808, -0.2903, 0.2, -0.9569, -0.2903, -0.2, -0.9569, -0.1951, -0.2, -0.9808, -0.2903, 0.2, -0.9569, -0.3827, 0.2, -0.9239, -0.2903, -0.2, -0.9569, -0.3827, 0.2, -0.9239, -0.3827, -0.2, -0.9239, -0.2903, -0.2, -0.9569, -0.3827, 0.2, -0.9239, -0.4714, 0.2, -0.8819, -0.3827, -0.2, -0.9239, -0.4714, 0.2, -0.8819, -0.4714, -0.2, -0.8819, -0.3827, -0.2, -0.9239, -0.4714, 0.2, -0.8819, -0.5556, 0.2, -0.8315, -0.4714, -0.2, -0.8819, -0.5556, 0.2, -0.8315, -0.5556, -0.2, -0.8315, -0.4714, -0.2, -0.8819, -0.5556, 0.2, -0.8315, -0.6344, 0.2, -0.773, -0.5556, -0.2, -0.8315, -0.6344, 0.2, -0.773, -0.6344, -0.2, -0.773, -0.5556, -0.2, -0.8315, -0.6344, 0.2, -0.773, -0.7071, 0.2, -0.7071, -0.6344, -0.2, -0.773, -0.7071, 0.2, -0.7071, -0.7071, -0.2, -0.7071, -0.6344, -0.2, -0.773, -0.7071, 0.2, -0.7071, -0.773, 0.2, -0.6344, -0.7071, -0.2, -0.7071, -0.773, 0.2, -0.6344, -0.773, -0.2, -0.6344, -0.7071, -0.2, -0.7071, -0.773, 0.2, -0.6344, -0.8315, 0.2, -0.5556, -0.773, -0.2, -0.6344, -0.8315, 0.2, -0.5556, -0.8315, -0.2, -0.5556, -0.773, -0.2, -0.6344, -0.8315, 0.2, -0.5556, -0.8819, 0.2, -0.4714, -0.8315, -0.2, -0.5556, -0.8819, 0.2, -0.4714, -0.8819, -0.2, -0.4714, -0.8315, -0.2, -0.5556, -0.8819, 0.2, -0.4714, -0.9239, 0.2, -0.3827, -0.8819, -0.2, -0.4714, -0.9239, 0.2, -0.3827, -0.9239, -0.2, -0.3827, -0.8819, -0.2, -0.4714, -0.9239, 0.2, -0.3827, -0.9569, 0.2, -0.2903, -0.9239, -0.2, -0.3827, -0.9569, 0.2, -0.2903, -0.9569, -0.2, -0.2903, -0.9239, -0.2, -0.3827, -0.9569, 0.2, -0.2903, -0.9808, 0.2, -0.1951, -0.9569, -0.2, -0.2903, -0.9808, 0.2, -0.1951, -0.9808, -0.2, -0.1951, -0.9569, -0.2, -0.2903, -0.9808, 0.2, -0.1951, -0.9952, 0.2, -0.098, -0.9808, -0.2, -0.1951, -0.9952, 0.2, -0.098, -0.9952, -0.2, -0.098, -0.9808, -0.2, -0.1951, -0.9952, 0.2, -0.098, -1, 0.2, 0, -0.9952, -0.2, -0.098, -1, 0.2, 0, -1, -0.2, 0, -0.9952, -0.2, -0.098, -1, 0.2, 0, -0.9952, 0.2, 0.098, -1, -0.2, 0, -0.9952, 0.2, 0.098, -0.9952, -0.2, 0.098, -1, -0.2, 0, -0.9952, 0.2, 0.098, -0.9808, 0.2, 0.1951, -0.9952, -0.2, 0.098, -0.9808, 0.2, 0.1951, -0.9808, -0.2, 0.1951, -0.9952, -0.2, 0.098, -0.9808, 0.2, 0.1951, -0.9569, 0.2, 0.2903, -0.9808, -0.2, 0.1951, -0.9569, 0.2, 0.2903, -0.9569, -0.2, 0.2903, -0.9808, -0.2, 0.1951, -0.9569, 0.2, 0.2903, -0.9239, 0.2, 0.3827, -0.9569, -0.2, 0.2903, -0.9239, 0.2, 0.3827, -0.9239, -0.2, 0.3827, -0.9569, -0.2, 0.2903, -0.9239, 0.2, 0.3827, -0.8819, 0.2, 0.4714, -0.9239, -0.2, 0.3827, -0.8819, 0.2, 0.4714, -0.8819, -0.2, 0.4714, -0.9239, -0.2, 0.3827, -0.8819, 0.2, 0.4714, -0.8315, 0.2, 0.5556, -0.8819, -0.2, 0.4714, -0.8315, 0.2, 0.5556, -0.8315, -0.2, 0.5556, -0.8819, -0.2, 0.4714, -0.8315, 0.2, 0.5556, -0.773, 0.2, 0.6344, -0.8315, -0.2, 0.5556, -0.773, 0.2, 0.6344, -0.773, -0.2, 0.6344, -0.8315, -0.2, 0.5556, -0.773, 0.2, 0.6344, -0.7071, 0.2, 0.7071, -0.773, -0.2, 0.6344, -0.7071, 0.2, 0.7071, -0.7071, -0.2, 0.7071, -0.773, -0.2, 0.6344, -0.7071, 0.2, 0.7071, -0.6344, 0.2, 0.773, -0.7071, -0.2, 0.7071, -0.6344, 0.2, 0.773, -0.6344, -0.2, 0.773, -0.7071, -0.2, 0.7071, -0.6344, 0.2, 0.773, -0.5556, 0.2, 0.8315, -0.6344, -0.2, 0.773, -0.5556, 0.2, 0.8315, -0.5556, -0.2, 0.8315, -0.6344, -0.2, 0.773, -0.5556, 0.2, 0.8315, -0.4714, 0.2, 0.8819, -0.5556, -0.2, 0.8315, -0.4714, 0.2, 0.8819, -0.4714, -0.2, 0.8819, -0.5556, -0.2, 0.8315, -0.4714, 0.2, 0.8819, -0.3827, 0.2, 0.9239, -0.4714, -0.2, 0.8819, -0.3827, 0.2, 0.9239, -0.3827, -0.2, 0.9239, -0.4714, -0.2, 0.8819, -0.3827, 0.2, 0.9239, -0.2903, 0.2, 0.9569, -0.3827, -0.2, 0.9239, -0.2903, 0.2, 0.9569, -0.2903, -0.2, 0.9569, -0.3827, -0.2, 0.9239, -0.2903, 0.2, 0.9569, -0.1951, 0.2, 0.9808, -0.2903, -0.2, 0.9569, -0.1951, 0.2, 0.9808, -0.1951, -0.2, 0.9808, -0.2903, -0.2, 0.9569, -0.1951, 0.2, 0.9808, -0.098, 0.2, 0.9952, -0.1951, -0.2, 0.9808, -0.098, 0.2, 0.9952, -0.098, -0.2, 0.9952, -0.1951, -0.2, 0.9808, -0.098, 0.2, 0.9952, 0, 0.2, 1, -0.098, -0.2, 0.9952, 0, 0.2, 1, 0, -0.2, 1, -0.098, -0.2, 0.9952, 0, -0.2, 1, 0.098, -0.2, 0.9952, 0, -0.6, 1, 0.098, -0.2, 0.9952, 0.098, -0.6, 0.9952, 0, -0.6, 1, 0.098, -0.2, 0.9952, 0.1951, -0.2, 0.9808, 0.098, -0.6, 0.9952, 0.1951, -0.2, 0.9808, 0.1951, -0.6, 0.9808, 0.098, -0.6, 0.9952, 0.1951, -0.2, 0.9808, 0.2903, -0.2, 0.9569, 0.1951, -0.6, 0.9808, 0.2903, -0.2, 0.9569, 0.2903, -0.6, 0.9569, 0.1951, -0.6, 0.9808, 0.2903, -0.2, 0.9569, 0.3827, -0.2, 0.9239, 0.2903, -0.6, 0.9569, 0.3827, -0.2, 0.9239, 0.3827, -0.6, 0.9239, 0.2903, -0.6, 0.9569, 0.3827, -0.2, 0.9239, 0.4714, -0.2, 0.8819, 0.3827, -0.6, 0.9239, 0.4714, -0.2, 0.8819, 0.4714, -0.6, 0.8819, 0.3827, -0.6, 0.9239, 0.4714, -0.2, 0.8819, 0.5556, -0.2, 0.8315, 0.4714, -0.6, 0.8819, 0.5556, -0.2, 0.8315, 0.5556, -0.6, 0.8315, 0.4714, -0.6, 0.8819, 0.5556, -0.2, 0.8315, 0.6344, -0.2, 0.773, 0.5556, -0.6, 0.8315, 0.6344, -0.2, 0.773, 0.6344, -0.6, 0.773, 0.5556, -0.6, 0.8315, 0.6344, -0.2, 0.773, 0.7071, -0.2, 0.7071, 0.6344, -0.6, 0.773, 0.7071, -0.2, 0.7071, 0.7071, -0.6, 0.7071, 0.6344, -0.6, 0.773, 0.7071, -0.2, 0.7071, 0.773, -0.2, 0.6344, 0.7071, -0.6, 0.7071, 0.773, -0.2, 0.6344, 0.773, -0.6, 0.6344, 0.7071, -0.6, 0.7071, 0.773, -0.2, 0.6344, 0.8315, -0.2, 0.5556, 0.773, -0.6, 0.6344, 0.8315, -0.2, 0.5556, 0.8315, -0.6, 0.5556, 0.773, -0.6, 0.6344, 0.8315, -0.2, 0.5556, 0.8819, -0.2, 0.4714, 0.8315, -0.6, 0.5556, 0.8819, -0.2, 0.4714, 0.8819, -0.6, 0.4714, 0.8315, -0.6, 0.5556, 0.8819, -0.2, 0.4714, 0.9239, -0.2, 0.3827, 0.8819, -0.6, 0.4714, 0.9239, -0.2, 0.3827, 0.9239, -0.6, 0.3827, 0.8819, -0.6, 0.4714, 0.9239, -0.2, 0.3827, 0.9569, -0.2, 0.2903, 0.9239, -0.6, 0.3827, 0.9569, -0.2, 0.2903, 0.9569, -0.6, 0.2903, 0.9239, -0.6, 0.3827, 0.9569, -0.2, 0.2903, 0.9808, -0.2, 0.1951, 0.9569, -0.6, 0.2903, 0.9808, -0.2, 0.1951, 0.9808, -0.6, 0.1951, 0.9569, -0.6, 0.2903, 0.9808, -0.2, 0.1951, 0.9952, -0.2, 0.098, 0.9808, -0.6, 0.1951, 0.9952, -0.2, 0.098, 0.9952, -0.6, 0.098, 0.9808, -0.6, 0.1951, 0.9952, -0.2, 0.098, 1, -0.2, 0, 0.9952, -0.6, 0.098, 1, -0.2, 0, 1, -0.6, 0, 0.9952, -0.6, 0.098, 1, -0.2, 0, 0.9952, -0.2, -0.098, 1, -0.6, 0, 0.9952, -0.2, -0.098, 0.9952, -0.6, -0.098, 1, -0.6, 0, 0.9952, -0.2, -0.098, 0.9808, -0.2, -0.1951, 0.9952, -0.6, -0.098, 0.9808, -0.2, -0.1951, 0.9808, -0.6, -0.1951, 0.9952, -0.6, -0.098, 0.9808, -0.2, -0.1951, 0.9569, -0.2, -0.2903, 0.9808, -0.6, -0.1951, 0.9569, -0.2, -0.2903, 0.9569, -0.6, -0.2903, 0.9808, -0.6, -0.1951, 0.9569, -0.2, -0.2903, 0.9239, -0.2, -0.3827, 0.9569, -0.6, -0.2903, 0.9239, -0.2, -0.3827, 0.9239, -0.6, -0.3827, 0.9569, -0.6, -0.2903, 0.9239, -0.2, -0.3827, 0.8819, -0.2, -0.4714, 0.9239, -0.6, -0.3827, 0.8819, -0.2, -0.4714, 0.8819, -0.6, -0.4714, 0.9239, -0.6, -0.3827, 0.8819, -0.2, -0.4714, 0.8315, -0.2, -0.5556, 0.8819, -0.6, -0.4714, 0.8315, -0.2, -0.5556, 0.8315, -0.6, -0.5556, 0.8819, -0.6, -0.4714, 0.8315, -0.2, -0.5556, 0.773, -0.2, -0.6344, 0.8315, -0.6, -0.5556, 0.773, -0.2, -0.6344, 0.773, -0.6, -0.6344, 0.8315, -0.6, -0.5556, 0.773, -0.2, -0.6344, 0.7071, -0.2, -0.7071, 0.773, -0.6, -0.6344, 0.7071, -0.2, -0.7071, 0.7071, -0.6, -0.7071, 0.773, -0.6, -0.6344, 0.7071, -0.2, -0.7071, 0.6344, -0.2, -0.773, 0.7071, -0.6, -0.7071, 0.6344, -0.2, -0.773, 0.6344, -0.6, -0.773, 0.7071, -0.6, -0.7071, 0.6344, -0.2, -0.773, 0.5556, -0.2, -0.8315, 0.6344, -0.6, -0.773, 0.5556, -0.2, -0.8315, 0.5556, -0.6, -0.8315, 0.6344, -0.6, -0.773, 0.5556, -0.2, -0.8315, 0.4714, -0.2, -0.8819, 0.5556, -0.6, -0.8315, 0.4714, -0.2, -0.8819, 0.4714, -0.6, -0.8819, 0.5556, -0.6, -0.8315, 0.4714, -0.2, -0.8819, 0.3827, -0.2, -0.9239, 0.4714, -0.6, -0.8819, 0.3827, -0.2, -0.9239, 0.3827, -0.6, -0.9239, 0.4714, -0.6, -0.8819, 0.3827, -0.2, -0.9239, 0.2903, -0.2, -0.9569, 0.3827, -0.6, -0.9239, 0.2903, -0.2, -0.9569, 0.2903, -0.6, -0.9569, 0.3827, -0.6, -0.9239, 0.2903, -0.2, -0.9569, 0.1951, -0.2, -0.9808, 0.2903, -0.6, -0.9569, 0.1951, -0.2, -0.9808, 0.1951, -0.6, -0.9808, 0.2903, -0.6, -0.9569, 0.1951, -0.2, -0.9808, 0.098, -0.2, -0.9952, 0.1951, -0.6, -0.9808, 0.098, -0.2, -0.9952, 0.098, -0.6, -0.9952, 0.1951, -0.6, -0.9808, 0.098, -0.2, -0.9952, 0, -0.2, -1, 0.098, -0.6, -0.9952, 0, -0.2, -1, 0, -0.6, -1, 0.098, -0.6, -0.9952, 0, -0.2, -1, -0.098, -0.2, -0.9952, 0, -0.6, -1, -0.098, -0.2, -0.9952, -0.098, -0.6, -0.9952, 0, -0.6, -1, -0.098, -0.2, -0.9952, -0.1951, -0.2, -0.9808, -0.098, -0.6, -0.9952, -0.1951, -0.2, -0.9808, -0.1951, -0.6, -0.9808, -0.098, -0.6, -0.9952, -0.1951, -0.2, -0.9808, -0.2903, -0.2, -0.9569, -0.1951, -0.6, -0.9808, -0.2903, -0.2, -0.9569, -0.2903, -0.6, -0.9569, -0.1951, -0.6, -0.9808, -0.2903, -0.2, -0.9569, -0.3827, -0.2, -0.9239, -0.2903, -0.6, -0.9569, -0.3827, -0.2, -0.9239, -0.3827, -0.6, -0.9239, -0.2903, -0.6, -0.9569, -0.3827, -0.2, -0.9239, -0.4714, -0.2, -0.8819, -0.3827, -0.6, -0.9239, -0.4714, -0.2, -0.8819, -0.4714, -0.6, -0.8819, -0.3827, -0.6, -0.9239, -0.4714, -0.2, -0.8819, -0.5556, -0.2, -0.8315, -0.4714, -0.6, -0.8819, -0.5556, -0.2, -0.8315, -0.5556, -0.6, -0.8315, -0.4714, -0.6, -0.8819, -0.5556, -0.2, -0.8315, -0.6344, -0.2, -0.773, -0.5556, -0.6, -0.8315, -0.6344, -0.2, -0.773, -0.6344, -0.6, -0.773, -0.5556, -0.6, -0.8315, -0.6344, -0.2, -0.773, -0.7071, -0.2, -0.7071, -0.6344, -0.6, -0.773, -0.7071, -0.2, -0.7071, -0.7071, -0.6, -0.7071, -0.6344, -0.6, -0.773, -0.7071, -0.2, -0.7071, -0.773, -0.2, -0.6344, -0.7071, -0.6, -0.7071, -0.773, -0.2, -0.6344, -0.773, -0.6, -0.6344, -0.7071, -0.6, -0.7071, -0.773, -0.2, -0.6344, -0.8315, -0.2, -0.5556, -0.773, -0.6, -0.6344, -0.8315, -0.2, -0.5556, -0.8315, -0.6, -0.5556, -0.773, -0.6, -0.6344, -0.8315, -0.2, -0.5556, -0.8819, -0.2, -0.4714, -0.8315, -0.6, -0.5556, -0.8819, -0.2, -0.4714, -0.8819, -0.6, -0.4714, -0.8315, -0.6, -0.5556, -0.8819, -0.2, -0.4714, -0.9239, -0.2, -0.3827, -0.8819, -0.6, -0.4714, -0.9239, -0.2, -0.3827, -0.9239, -0.6, -0.3827, -0.8819, -0.6, -0.4714, -0.9239, -0.2, -0.3827, -0.9569, -0.2, -0.2903, -0.9239, -0.6, -0.3827, -0.9569, -0.2, -0.2903, -0.9569, -0.6, -0.2903, -0.9239, -0.6, -0.3827, -0.9569, -0.2, -0.2903, -0.9808, -0.2, -0.1951, -0.9569, -0.6, -0.2903, -0.9808, -0.2, -0.1951, -0.9808, -0.6, -0.1951, -0.9569, -0.6, -0.2903, -0.9808, -0.2, -0.1951, -0.9952, -0.2, -0.098, -0.9808, -0.6, -0.1951, -0.9952, -0.2, -0.098, -0.9952, -0.6, -0.098, -0.9808, -0.6, -0.1951, -0.9952, -0.2, -0.098, -1, -0.2, 0, -0.9952, -0.6, -0.098, -1, -0.2, 0, -1, -0.6, 0, -0.9952, -0.6, -0.098, -1, -0.2, 0, -0.9952, -0.2, 0.098, -1, -0.6, 0, -0.9952, -0.2, 0.098, -0.9952, -0.6, 0.098, -1, -0.6, 0, -0.9952, -0.2, 0.098, -0.9808, -0.2, 0.1951, -0.9952, -0.6, 0.098, -0.9808, -0.2, 0.1951, -0.9808, -0.6, 0.1951, -0.9952, -0.6, 0.098, -0.9808, -0.2, 0.1951, -0.9569, -0.2, 0.2903, -0.9808, -0.6, 0.1951, -0.9569, -0.2, 0.2903, -0.9569, -0.6, 0.2903, -0.9808, -0.6, 0.1951, -0.9569, -0.2, 0.2903, -0.9239, -0.2, 0.3827, -0.9569, -0.6, 0.2903, -0.9239, -0.2, 0.3827, -0.9239, -0.6, 0.3827, -0.9569, -0.6, 0.2903, -0.9239, -0.2, 0.3827, -0.8819, -0.2, 0.4714, -0.9239, -0.6, 0.3827, -0.8819, -0.2, 0.4714, -0.8819, -0.6, 0.4714, -0.9239, -0.6, 0.3827, -0.8819, -0.2, 0.4714, -0.8315, -0.2, 0.5556, -0.8819, -0.6, 0.4714, -0.8315, -0.2, 0.5556, -0.8315, -0.6, 0.5556, -0.8819, -0.6, 0.4714, -0.8315, -0.2, 0.5556, -0.773, -0.2, 0.6344, -0.8315, -0.6, 0.5556, -0.773, -0.2, 0.6344, -0.773, -0.6, 0.6344, -0.8315, -0.6, 0.5556, -0.773, -0.2, 0.6344, -0.7071, -0.2, 0.7071, -0.773, -0.6, 0.6344, -0.7071, -0.2, 0.7071, -0.7071, -0.6, 0.7071, -0.773, -0.6, 0.6344, -0.7071, -0.2, 0.7071, -0.6344, -0.2, 0.773, -0.7071, -0.6, 0.7071, -0.6344, -0.2, 0.773, -0.6344, -0.6, 0.773, -0.7071, -0.6, 0.7071, -0.6344, -0.2, 0.773, -0.5556, -0.2, 0.8315, -0.6344, -0.6, 0.773, -0.5556, -0.2, 0.8315, -0.5556, -0.6, 0.8315, -0.6344, -0.6, 0.773, -0.5556, -0.2, 0.8315, -0.4714, -0.2, 0.8819, -0.5556, -0.6, 0.8315, -0.4714, -0.2, 0.8819, -0.4714, -0.6, 0.8819, -0.5556, -0.6, 0.8315, -0.4714, -0.2, 0.8819, -0.3827, -0.2, 0.9239, -0.4714, -0.6, 0.8819, -0.3827, -0.2, 0.9239, -0.3827, -0.6, 0.9239, -0.4714, -0.6, 0.8819, -0.3827, -0.2, 0.9239, -0.2903, -0.2, 0.9569, -0.3827, -0.6, 0.9239, -0.2903, -0.2, 0.9569, -0.2903, -0.6, 0.9569, -0.3827, -0.6, 0.9239, -0.2903, -0.2, 0.9569, -0.1951, -0.2, 0.9808, -0.2903, -0.6, 0.9569, -0.1951, -0.2, 0.9808, -0.1951, -0.6, 0.9808, -0.2903, -0.6, 0.9569, -0.1951, -0.2, 0.9808, -0.098, -0.2, 0.9952, -0.1951, -0.6, 0.9808, -0.098, -0.2, 0.9952, -0.098, -0.6, 0.9952, -0.1951, -0.6, 0.9808, -0.098, -0.2, 0.9952, 0, -0.2, 1, -0.098, -0.6, 0.9952, 0, -0.2, 1, 0, -0.6, 1, -0.098, -0.6, 0.9952, 0, -0.6, 1, 0.098, -0.6, 0.9952, 0, -1, 1, 0.098, -0.6, 0.9952, 0.098, -1, 0.9952, 0, -1, 1, 0.098, -0.6, 0.9952, 0.1951, -0.6, 0.9808, 0.098, -1, 0.9952, 0.1951, -0.6, 0.9808, 0.1951, -1, 0.9808, 0.098, -1, 0.9952, 0.1951, -0.6, 0.9808, 0.2903, -0.6, 0.9569, 0.1951, -1, 0.9808, 0.2903, -0.6, 0.9569, 0.2903, -1, 0.9569, 0.1951, -1, 0.9808, 0.2903, -0.6, 0.9569, 0.3827, -0.6, 0.9239, 0.2903, -1, 0.9569, 0.3827, -0.6, 0.9239, 0.3827, -1, 0.9239, 0.2903, -1, 0.9569, 0.3827, -0.6, 0.9239, 0.4714, -0.6, 0.8819, 0.3827, -1, 0.9239, 0.4714, -0.6, 0.8819, 0.4714, -1, 0.8819, 0.3827, -1, 0.9239, 0.4714, -0.6, 0.8819, 0.5556, -0.6, 0.8315, 0.4714, -1, 0.8819, 0.5556, -0.6, 0.8315, 0.5556, -1, 0.8315, 0.4714, -1, 0.8819, 0.5556, -0.6, 0.8315, 0.6344, -0.6, 0.773, 0.5556, -1, 0.8315, 0.6344, -0.6, 0.773, 0.6344, -1, 0.773, 0.5556, -1, 0.8315, 0.6344, -0.6, 0.773, 0.7071, -0.6, 0.7071, 0.6344, -1, 0.773, 0.7071, -0.6, 0.7071, 0.7071, -1, 0.7071, 0.6344, -1, 0.773, 0.7071, -0.6, 0.7071, 0.773, -0.6, 0.6344, 0.7071, -1, 0.7071, 0.773, -0.6, 0.6344, 0.773, -1, 0.6344, 0.7071, -1, 0.7071, 0.773, -0.6, 0.6344, 0.8315, -0.6, 0.5556, 0.773, -1, 0.6344, 0.8315, -0.6, 0.5556, 0.8315, -1, 0.5556, 0.773, -1, 0.6344, 0.8315, -0.6, 0.5556, 0.8819, -0.6, 0.4714, 0.8315, -1, 0.5556, 0.8819, -0.6, 0.4714, 0.8819, -1, 0.4714, 0.8315, -1, 0.5556, 0.8819, -0.6, 0.4714, 0.9239, -0.6, 0.3827, 0.8819, -1, 0.4714, 0.9239, -0.6, 0.3827, 0.9239, -1, 0.3827, 0.8819, -1, 0.4714, 0.9239, -0.6, 0.3827, 0.9569, -0.6, 0.2903, 0.9239, -1, 0.3827, 0.9569, -0.6, 0.2903, 0.9569, -1, 0.2903, 0.9239, -1, 0.3827, 0.9569, -0.6, 0.2903, 0.9808, -0.6, 0.1951, 0.9569, -1, 0.2903, 0.9808, -0.6, 0.1951, 0.9808, -1, 0.1951, 0.9569, -1, 0.2903, 0.9808, -0.6, 0.1951, 0.9952, -0.6, 0.098, 0.9808, -1, 0.1951, 0.9952, -0.6, 0.098, 0.9952, -1, 0.098, 0.9808, -1, 0.1951, 0.9952, -0.6, 0.098, 1, -0.6, 0, 0.9952, -1, 0.098, 1, -0.6, 0, 1, -1, 0, 0.9952, -1, 0.098, 1, -0.6, 0, 0.9952, -0.6, -0.098, 1, -1, 0, 0.9952, -0.6, -0.098, 0.9952, -1, -0.098, 1, -1, 0, 0.9952, -0.6, -0.098, 0.9808, -0.6, -0.1951, 0.9952, -1, -0.098, 0.9808, -0.6, -0.1951, 0.9808, -1, -0.1951, 0.9952, -1, -0.098, 0.9808, -0.6, -0.1951, 0.9569, -0.6, -0.2903, 0.9808, -1, -0.1951, 0.9569, -0.6, -0.2903, 0.9569, -1, -0.2903, 0.9808, -1, -0.1951, 0.9569, -0.6, -0.2903, 0.9239, -0.6, -0.3827, 0.9569, -1, -0.2903, 0.9239, -0.6, -0.3827, 0.9239, -1, -0.3827, 0.9569, -1, -0.2903, 0.9239, -0.6, -0.3827, 0.8819, -0.6, -0.4714, 0.9239, -1, -0.3827, 0.8819, -0.6, -0.4714, 0.8819, -1, -0.4714, 0.9239, -1, -0.3827, 0.8819, -0.6, -0.4714, 0.8315, -0.6, -0.5556, 0.8819, -1, -0.4714, 0.8315, -0.6, -0.5556, 0.8315, -1, -0.5556, 0.8819, -1, -0.4714, 0.8315, -0.6, -0.5556, 0.773, -0.6, -0.6344, 0.8315, -1, -0.5556, 0.773, -0.6, -0.6344, 0.773, -1, -0.6344, 0.8315, -1, -0.5556, 0.773, -0.6, -0.6344, 0.7071, -0.6, -0.7071, 0.773, -1, -0.6344, 0.7071, -0.6, -0.7071, 0.7071, -1, -0.7071, 0.773, -1, -0.6344, 0.7071, -0.6, -0.7071, 0.6344, -0.6, -0.773, 0.7071, -1, -0.7071, 0.6344, -0.6, -0.773, 0.6344, -1, -0.773, 0.7071, -1, -0.7071, 0.6344, -0.6, -0.773, 0.5556, -0.6, -0.8315, 0.6344, -1, -0.773, 0.5556, -0.6, -0.8315, 0.5556, -1, -0.8315, 0.6344, -1, -0.773, 0.5556, -0.6, -0.8315, 0.4714, -0.6, -0.8819, 0.5556, -1, -0.8315, 0.4714, -0.6, -0.8819, 0.4714, -1, -0.8819, 0.5556, -1, -0.8315, 0.4714, -0.6, -0.8819, 0.3827, -0.6, -0.9239, 0.4714, -1, -0.8819, 0.3827, -0.6, -0.9239, 0.3827, -1, -0.9239, 0.4714, -1, -0.8819, 0.3827, -0.6, -0.9239, 0.2903, -0.6, -0.9569, 0.3827, -1, -0.9239, 0.2903, -0.6, -0.9569, 0.2903, -1, -0.9569, 0.3827, -1, -0.9239, 0.2903, -0.6, -0.9569, 0.1951, -0.6, -0.9808, 0.2903, -1, -0.9569, 0.1951, -0.6, -0.9808, 0.1951, -1, -0.9808, 0.2903, -1, -0.9569, 0.1951, -0.6, -0.9808, 0.098, -0.6, -0.9952, 0.1951, -1, -0.9808, 0.098, -0.6, -0.9952, 0.098, -1, -0.9952, 0.1951, -1, -0.9808, 0.098, -0.6, -0.9952, 0, -0.6, -1, 0.098, -1, -0.9952, 0, -0.6, -1, 0, -1, -1, 0.098, -1, -0.9952, 0, -0.6, -1, -0.098, -0.6, -0.9952, 0, -1, -1, -0.098, -0.6, -0.9952, -0.098, -1, -0.9952, 0, -1, -1, -0.098, -0.6, -0.9952, -0.1951, -0.6, -0.9808, -0.098, -1, -0.9952, -0.1951, -0.6, -0.9808, -0.1951, -1, -0.9808, -0.098, -1, -0.9952, -0.1951, -0.6, -0.9808, -0.2903, -0.6, -0.9569, -0.1951, -1, -0.9808, -0.2903, -0.6, -0.9569, -0.2903, -1, -0.9569, -0.1951, -1, -0.9808, -0.2903, -0.6, -0.9569, -0.3827, -0.6, -0.9239, -0.2903, -1, -0.9569, -0.3827, -0.6, -0.9239, -0.3827, -1, -0.9239, -0.2903, -1, -0.9569, -0.3827, -0.6, -0.9239, -0.4714, -0.6, -0.8819, -0.3827, -1, -0.9239, -0.4714, -0.6, -0.8819, -0.4714, -1, -0.8819, -0.3827, -1, -0.9239, -0.4714, -0.6, -0.8819, -0.5556, -0.6, -0.8315, -0.4714, -1, -0.8819, -0.5556, -0.6, -0.8315, -0.5556, -1, -0.8315, -0.4714, -1, -0.8819, -0.5556, -0.6, -0.8315, -0.6344, -0.6, -0.773, -0.5556, -1, -0.8315, -0.6344, -0.6, -0.773, -0.6344, -1, -0.773, -0.5556, -1, -0.8315, -0.6344, -0.6, -0.773, -0.7071, -0.6, -0.7071, -0.6344, -1, -0.773, -0.7071, -0.6, -0.7071, -0.7071, -1, -0.7071, -0.6344, -1, -0.773, -0.7071, -0.6, -0.7071, -0.773, -0.6, -0.6344, -0.7071, -1, -0.7071, -0.773, -0.6, -0.6344, -0.773, -1, -0.6344, -0.7071, -1, -0.7071, -0.773, -0.6, -0.6344, -0.8315, -0.6, -0.5556, -0.773, -1, -0.6344, -0.8315, -0.6, -0.5556, -0.8315, -1, -0.5556, -0.773, -1, -0.6344, -0.8315, -0.6, -0.5556, -0.8819, -0.6, -0.4714, -0.8315, -1, -0.5556, -0.8819, -0.6, -0.4714, -0.8819, -1, -0.4714, -0.8315, -1, -0.5556, -0.8819, -0.6, -0.4714, -0.9239, -0.6, -0.3827, -0.8819, -1, -0.4714, -0.9239, -0.6, -0.3827, -0.9239, -1, -0.3827, -0.8819, -1, -0.4714, -0.9239, -0.6, -0.3827, -0.9569, -0.6, -0.2903, -0.9239, -1, -0.3827, -0.9569, -0.6, -0.2903, -0.9569, -1, -0.2903, -0.9239, -1, -0.3827, -0.9569, -0.6, -0.2903, -0.9808, -0.6, -0.1951, -0.9569, -1, -0.2903, -0.9808, -0.6, -0.1951, -0.9808, -1, -0.1951, -0.9569, -1, -0.2903, -0.9808, -0.6, -0.1951, -0.9952, -0.6, -0.098, -0.9808, -1, -0.1951, -0.9952, -0.6, -0.098, -0.9952, -1, -0.098, -0.9808, -1, -0.1951, -0.9952, -0.6, -0.098, -1, -0.6, 0, -0.9952, -1, -0.098, -1, -0.6, 0, -1, -1, 0, -0.9952, -1, -0.098, -1, -0.6, 0, -0.9952, -0.6, 0.098, -1, -1, 0, -0.9952, -0.6, 0.098, -0.9952, -1, 0.098, -1, -1, 0, -0.9952, -0.6, 0.098, -0.9808, -0.6, 0.1951, -0.9952, -1, 0.098, -0.9808, -0.6, 0.1951, -0.9808, -1, 0.1951, -0.9952, -1, 0.098, -0.9808, -0.6, 0.1951, -0.9569, -0.6, 0.2903, -0.9808, -1, 0.1951, -0.9569, -0.6, 0.2903, -0.9569, -1, 0.2903, -0.9808, -1, 0.1951, -0.9569, -0.6, 0.2903, -0.9239, -0.6, 0.3827, -0.9569, -1, 0.2903, -0.9239, -0.6, 0.3827, -0.9239, -1, 0.3827, -0.9569, -1, 0.2903, -0.9239, -0.6, 0.3827, -0.8819, -0.6, 0.4714, -0.9239, -1, 0.3827, -0.8819, -0.6, 0.4714, -0.8819, -1, 0.4714, -0.9239, -1, 0.3827, -0.8819, -0.6, 0.4714, -0.8315, -0.6, 0.5556, -0.8819, -1, 0.4714, -0.8315, -0.6, 0.5556, -0.8315, -1, 0.5556, -0.8819, -1, 0.4714, -0.8315, -0.6, 0.5556, -0.773, -0.6, 0.6344, -0.8315, -1, 0.5556, -0.773, -0.6, 0.6344, -0.773, -1, 0.6344, -0.8315, -1, 0.5556, -0.773, -0.6, 0.6344, -0.7071, -0.6, 0.7071, -0.773, -1, 0.6344, -0.7071, -0.6, 0.7071, -0.7071, -1, 0.7071, -0.773, -1, 0.6344, -0.7071, -0.6, 0.7071, -0.6344, -0.6, 0.773, -0.7071, -1, 0.7071, -0.6344, -0.6, 0.773, -0.6344, -1, 0.773, -0.7071, -1, 0.7071, -0.6344, -0.6, 0.773, -0.5556, -0.6, 0.8315, -0.6344, -1, 0.773, -0.5556, -0.6, 0.8315, -0.5556, -1, 0.8315, -0.6344, -1, 0.773, -0.5556, -0.6, 0.8315, -0.4714, -0.6, 0.8819, -0.5556, -1, 0.8315, -0.4714, -0.6, 0.8819, -0.4714, -1, 0.8819, -0.5556, -1, 0.8315, -0.4714, -0.6, 0.8819, -0.3827, -0.6, 0.9239, -0.4714, -1, 0.8819, -0.3827, -0.6, 0.9239, -0.3827, -1, 0.9239, -0.4714, -1, 0.8819, -0.3827, -0.6, 0.9239, -0.2903, -0.6, 0.9569, -0.3827, -1, 0.9239, -0.2903, -0.6, 0.9569, -0.2903, -1, 0.9569, -0.3827, -1, 0.9239, -0.2903, -0.6, 0.9569, -0.1951, -0.6, 0.9808, -0.2903, -1, 0.9569, -0.1951, -0.6, 0.9808, -0.1951, -1, 0.9808, -0.2903, -1, 0.9569, -0.1951, -0.6, 0.9808, -0.098, -0.6, 0.9952, -0.1951, -1, 0.9808, -0.098, -0.6, 0.9952, -0.098, -1, 0.9952, -0.1951, -1, 0.9808, -0.098, -0.6, 0.9952, 0, -0.6, 1, -0.098, -1, 0.9952, 0, -0.6, 1, 0, -1, 1, -0.098, -1, 0.9952, 0, 1, 0, 0.098, 1, 0.9952, 0, 1, 1, 0, 1, 0, 0.1951, 1, 0.9808, 0.098, 1, 0.9952, 0, 1, 0, 0.2903, 1, 0.9569, 0.1951, 1, 0.9808, 0, 1, 0, 0.3827, 1, 0.9239, 0.2903, 1, 0.9569, 0, 1, 0, 0.4714, 1, 0.8819, 0.3827, 1, 0.9239, 0, 1, 0, 0.5556, 1, 0.8315, 0.4714, 1, 0.8819, 0, 1, 0, 0.6344, 1, 0.773, 0.5556, 1, 0.8315, 0, 1, 0, 0.7071, 1, 0.7071, 0.6344, 1, 0.773, 0, 1, 0, 0.773, 1, 0.6344, 0.7071, 1, 0.7071, 0, 1, 0, 0.8315, 1, 0.5556, 0.773, 1, 0.6344, 0, 1, 0, 0.8819, 1, 0.4714, 0.8315, 1, 0.5556, 0, 1, 0, 0.9239, 1, 0.3827, 0.8819, 1, 0.4714, 0, 1, 0, 0.9569, 1, 0.2903, 0.9239, 1, 0.3827, 0, 1, 0, 0.9808, 1, 0.1951, 0.9569, 1, 0.2903, 0, 1, 0, 0.9952, 1, 0.098, 0.9808, 1, 0.1951, 0, 1, 0, 1, 1, 0, 0.9952, 1, 0.098, 0, 1, 0, 0.9952, 1, -0.098, 1, 1, 0, 0, 1, 0, 0.9808, 1, -0.1951, 0.9952, 1, -0.098, 0, 1, 0, 0.9569, 1, -0.2903, 0.9808, 1, -0.1951, 0, 1, 0, 0.9239, 1, -0.3827, 0.9569, 1, -0.2903, 0, 1, 0, 0.8819, 1, -0.4714, 0.9239, 1, -0.3827, 0, 1, 0, 0.8315, 1, -0.5556, 0.8819, 1, -0.4714, 0, 1, 0, 0.773, 1, -0.6344, 0.8315, 1, -0.5556, 0, 1, 0, 0.7071, 1, -0.7071, 0.773, 1, -0.6344, 0, 1, 0, 0.6344, 1, -0.773, 0.7071, 1, -0.7071, 0, 1, 0, 0.5556, 1, -0.8315, 0.6344, 1, -0.773, 0, 1, 0, 0.4714, 1, -0.8819, 0.5556, 1, -0.8315, 0, 1, 0, 0.3827, 1, -0.9239, 0.4714, 1, -0.8819, 0, 1, 0, 0.2903, 1, -0.9569, 0.3827, 1, -0.9239, 0, 1, 0, 0.1951, 1, -0.9808, 0.2903, 1, -0.9569, 0, 1, 0, 0.098, 1, -0.9952, 0.1951, 1, -0.9808, 0, 1, 0, 0, 1, -1, 0.098, 1, -0.9952, 0, 1, 0, -0.098, 1, -0.9952, 0, 1, -1, 0, 1, 0, -0.1951, 1, -0.9808, -0.098, 1, -0.9952, 0, 1, 0, -0.2903, 1, -0.9569, -0.1951, 1, -0.9808, 0, 1, 0, -0.3827, 1, -0.9239, -0.2903, 1, -0.9569, 0, 1, 0, -0.4714, 1, -0.8819, -0.3827, 1, -0.9239, 0, 1, 0, -0.5556, 1, -0.8315, -0.4714, 1, -0.8819, 0, 1, 0, -0.6344, 1, -0.773, -0.5556, 1, -0.8315, 0, 1, 0, -0.7071, 1, -0.7071, -0.6344, 1, -0.773, 0, 1, 0, -0.773, 1, -0.6344, -0.7071, 1, -0.7071, 0, 1, 0, -0.8315, 1, -0.5556, -0.773, 1, -0.6344, 0, 1, 0, -0.8819, 1, -0.4714, -0.8315, 1, -0.5556, 0, 1, 0, -0.9239, 1, -0.3827, -0.8819, 1, -0.4714, 0, 1, 0, -0.9569, 1, -0.2903, -0.9239, 1, -0.3827, 0, 1, 0, -0.9808, 1, -0.1951, -0.9569, 1, -0.2903, 0, 1, 0, -0.9952, 1, -0.098, -0.9808, 1, -0.1951, 0, 1, 0, -1, 1, 0, -0.9952, 1, -0.098, 0, 1, 0, -0.9952, 1, 0.098, -1, 1, 0, 0, 1, 0, -0.9808, 1, 0.1951, -0.9952, 1, 0.098, 0, 1, 0, -0.9569, 1, 0.2903, -0.9808, 1, 0.1951, 0, 1, 0, -0.9239, 1, 0.3827, -0.9569, 1, 0.2903, 0, 1, 0, -0.8819, 1, 0.4714, -0.9239, 1, 0.3827, 0, 1, 0, -0.8315, 1, 0.5556, -0.8819, 1, 0.4714, 0, 1, 0, -0.773, 1, 0.6344, -0.8315, 1, 0.5556, 0, 1, 0, -0.7071, 1, 0.7071, -0.773, 1, 0.6344, 0, 1, 0, -0.6344, 1, 0.773, -0.7071, 1, 0.7071, 0, 1, 0, -0.5556, 1, 0.8315, -0.6344, 1, 0.773, 0, 1, 0, -0.4714, 1, 0.8819, -0.5556, 1, 0.8315, 0, 1, 0, -0.3827, 1, 0.9239, -0.4714, 1, 0.8819, 0, 1, 0, -0.2903, 1, 0.9569, -0.3827, 1, 0.9239, 0, 1, 0, -0.1951, 1, 0.9808, -0.2903, 1, 0.9569, 0, 1, 0, -0.098, 1, 0.9952, -0.1951, 1, 0.9808, 0, 1, 0, 0, 1, 1, -0.098, 1, 0.9952, 0, -1, 0, 0, -1, 1, 0.098, -1, 0.9952, 0, -1, 0, 0.098, -1, 0.9952, 0.1951, -1, 0.9808, 0, -1, 0, 0.1951, -1, 0.9808, 0.2903, -1, 0.9569, 0, -1, 0, 0.2903, -1, 0.9569, 0.3827, -1, 0.9239, 0, -1, 0, 0.3827, -1, 0.9239, 0.4714, -1, 0.8819, 0, -1, 0, 0.4714, -1, 0.8819, 0.5556, -1, 0.8315, 0, -1, 0, 0.5556, -1, 0.8315, 0.6344, -1, 0.773, 0, -1, 0, 0.6344, -1, 0.773, 0.7071, -1, 0.7071, 0, -1, 0, 0.7071, -1, 0.7071, 0.773, -1, 0.6344, 0, -1, 0, 0.773, -1, 0.6344, 0.8315, -1, 0.5556, 0, -1, 0, 0.8315, -1, 0.5556, 0.8819, -1, 0.4714, 0, -1, 0, 0.8819, -1, 0.4714, 0.9239, -1, 0.3827, 0, -1, 0, 0.9239, -1, 0.3827, 0.9569, -1, 0.2903, 0, -1, 0, 0.9569, -1, 0.2903, 0.9808, -1, 0.1951, 0, -1, 0, 0.9808, -1, 0.1951, 0.9952, -1, 0.098, 0, -1, 0, 0.9952, -1, 0.098, 1, -1, 0, 0, -1, 0, 1, -1, 0, 0.9952, -1, -0.098, 0, -1, 0, 0.9952, -1, -0.098, 0.9808, -1, -0.1951, 0, -1, 0, 0.9808, -1, -0.1951, 0.9569, -1, -0.2903, 0, -1, 0, 0.9569, -1, -0.2903, 0.9239, -1, -0.3827, 0, -1, 0, 0.9239, -1, -0.3827, 0.8819, -1, -0.4714, 0, -1, 0, 0.8819, -1, -0.4714, 0.8315, -1, -0.5556, 0, -1, 0, 0.8315, -1, -0.5556, 0.773, -1, -0.6344, 0, -1, 0, 0.773, -1, -0.6344, 0.7071, -1, -0.7071, 0, -1, 0, 0.7071, -1, -0.7071, 0.6344, -1, -0.773, 0, -1, 0, 0.6344, -1, -0.773, 0.5556, -1, -0.8315, 0, -1, 0, 0.5556, -1, -0.8315, 0.4714, -1, -0.8819, 0, -1, 0, 0.4714, -1, -0.8819, 0.3827, -1, -0.9239, 0, -1, 0, 0.3827, -1, -0.9239, 0.2903, -1, -0.9569, 0, -1, 0, 0.2903, -1, -0.9569, 0.1951, -1, -0.9808, 0, -1, 0, 0.1951, -1, -0.9808, 0.098, -1, -0.9952, 0, -1, 0, 0.098, -1, -0.9952, 0, -1, -1, 0, -1, 0, 0, -1, -1, -0.098, -1, -0.9952, 0, -1, 0, -0.098, -1, -0.9952, -0.1951, -1, -0.9808, 0, -1, 0, -0.1951, -1, -0.9808, -0.2903, -1, -0.9569, 0, -1, 0, -0.2903, -1, -0.9569, -0.3827, -1, -0.9239, 0, -1, 0, -0.3827, -1, -0.9239, -0.4714, -1, -0.8819, 0, -1, 0, -0.4714, -1, -0.8819, -0.5556, -1, -0.8315, 0, -1, 0, -0.5556, -1, -0.8315, -0.6344, -1, -0.773, 0, -1, 0, -0.6344, -1, -0.773, -0.7071, -1, -0.7071, 0, -1, 0, -0.7071, -1, -0.7071, -0.773, -1, -0.6344, 0, -1, 0, -0.773, -1, -0.6344, -0.8315, -1, -0.5556, 0, -1, 0, -0.8315, -1, -0.5556, -0.8819, -1, -0.4714, 0, -1, 0, -0.8819, -1, -0.4714, -0.9239, -1, -0.3827, 0, -1, 0, -0.9239, -1, -0.3827, -0.9569, -1, -0.2903, 0, -1, 0, -0.9569, -1, -0.2903, -0.9808, -1, -0.1951, 0, -1, 0, -0.9808, -1, -0.1951, -0.9952, -1, -0.098, 0, -1, 0, -0.9952, -1, -0.098, -1, -1, 0, 0, -1, 0, -1, -1, 0, -0.9952, -1, 0.098, 0, -1, 0, -0.9952, -1, 0.098, -0.9808, -1, 0.1951, 0, -1, 0, -0.9808, -1, 0.1951, -0.9569, -1, 0.2903, 0, -1, 0, -0.9569, -1, 0.2903, -0.9239, -1, 0.3827, 0, -1, 0, -0.9239, -1, 0.3827, -0.8819, -1, 0.4714, 0, -1, 0, -0.8819, -1, 0.4714, -0.8315, -1, 0.5556, 0, -1, 0, -0.8315, -1, 0.5556, -0.773, -1, 0.6344, 0, -1, 0, -0.773, -1, 0.6344, -0.7071, -1, 0.7071, 0, -1, 0, -0.7071, -1, 0.7071, -0.6344, -1, 0.773, 0, -1, 0, -0.6344, -1, 0.773, -0.5556, -1, 0.8315, 0, -1, 0, -0.5556, -1, 0.8315, -0.4714, -1, 0.8819, 0, -1, 0, -0.4714, -1, 0.8819, -0.3827, -1, 0.9239, 0, -1, 0, -0.3827, -1, 0.9239, -0.2903, -1, 0.9569, 0, -1, 0, -0.2903, -1, 0.9569, -0.1951, -1, 0.9808, 0, -1, 0, -0.1951, -1, 0.9808, -0.098, -1, 0.9952, 0, -1, 0, -0.098, -1, 0.9952, 0, -1, 1 )

[sub_resource type="BoxShape" id=24]
extents = Vector3( 0.171627, 0.258029, 0.0871467 )

[sub_resource type="CubeMesh" id=26]

[sub_resource type="ConcavePolygonShape" id=27]
data = PoolVector3Array( -1, 1, 1, 1, 1, 1, -1, -1, 1, 1, 1, 1, 1, -1, 1, -1, -1, 1, 1, 1, -1, -1, 1, -1, 1, -1, -1, -1, 1, -1, -1, -1, -1, 1, -1, -1, 1, 1, 1, 1, 1, -1, 1, -1, 1, 1, 1, -1, 1, -1, -1, 1, -1, 1, -1, 1, -1, -1, 1, 1, -1, -1, -1, -1, 1, 1, -1, -1, 1, -1, -1, -1, 1, 1, 1, -1, 1, 1, 1, 1, -1, -1, 1, 1, -1, 1, -1, 1, 1, -1, -1, -1, 1, 1, -1, 1, -1, -1, -1, 1, -1, 1, 1, -1, -1, -1, -1, -1 )

[sub_resource type="ConcavePolygonShape" id=28]
data = PoolVector3Array( -1, 1, 1, 1, 1, 1, -1, -1, 1, 1, 1, 1, 1, -1, 1, -1, -1, 1, 1, 1, -1, -1, 1, -1, 1, -1, -1, -1, 1, -1, -1, -1, -1, 1, -1, -1, 1, 1, 1, 1, 1, -1, 1, -1, 1, 1, 1, -1, 1, -1, -1, 1, -1, 1, -1, 1, -1, -1, 1, 1, -1, -1, -1, -1, 1, 1, -1, -1, 1, -1, -1, -1, 1, 1, 1, -1, 1, 1, 1, 1, -1, -1, 1, 1, -1, 1, -1, 1, 1, -1, -1, -1, 1, 1, -1, 1, -1, -1, -1, 1, -1, 1, 1, -1, -1, -1, -1, -1 )

[sub_resource type="CubeMesh" id=29]
material = ExtResource( 7 )

[sub_resource type="SphereShape" id=9]

[sub_resource type="BoxShape" id=25]
extents = Vector3( 1.4923, 0.001, 0.54808 )

[sub_resource type="BoxShape" id=23]
extents = Vector3( 1, 1.19492, 1.41083 )

[sub_resource type="BoxShape" id=22]
extents = Vector3( 0.840185, 1, 0.361915 )

[node name="Spatial" type="Spatial"]
script = ExtResource( 11 )

[node name="StaticBody2" type="StaticBody" parent="."]

[node name="CollisionShape" type="CollisionShape" parent="StaticBody2"]
transform = Transform( 10000, 0, 0, 0, 1, 0, 0, 0, 10000, 0, -0.0170237, 0 )
shape = SubResource( 5 )

[node name="MeshInstance" type="MeshInstance" parent="StaticBody2"]
visible = false
mesh = SubResource( 6 )
skin = SubResource( 7 )
skeleton = NodePath("../..")
material/0 = SubResource( 8 )

[node name="birlesik" parent="." instance=ExtResource( 13 )]
transform = Transform( 150, 0, 0, 0, 150, 0, 0, 0, 150, 105.874, -28, 16.1481 )

[node name="MeshInstance" type="MeshInstance" parent="birlesik"]
transform = Transform( 0.45, 0, 0, 0, 0.1, 0, 0, 0, 0.01, -2.37519, 0.267592, 2.92828 )
mesh = SubResource( 16 )

[node name="StaticBody" type="StaticBody" parent="birlesik/MeshInstance"]

[node name="CollisionShape" type="CollisionShape" parent="birlesik/MeshInstance/StaticBody"]
shape = SubResource( 17 )

[node name="MeshInstance2" type="MeshInstance" parent="birlesik"]
transform = Transform( 0.01, 0, 0, 0, 0.1, 0, 0, 0, 0.2, 2.115, 0.267998, 2.73 )
mesh = SubResource( 18 )

[node name="StaticBody" type="StaticBody" parent="birlesik/MeshInstance2"]

[node name="CollisionShape" type="CollisionShape" parent="birlesik/MeshInstance2/StaticBody"]
shape = SubResource( 19 )

[node name="MeshInstance3" type="MeshInstance" parent="birlesik"]
transform = Transform( 0.2, 0, 0, 0, 0.01, 0, 0, 0, 0.2, 2.02189, 0.197215, 0.959233 )
visible = false
mesh = SubResource( 20 )
skeleton = NodePath("../MeshInstance2")

[node name="StaticBody" type="StaticBody" parent="birlesik/MeshInstance3"]

[node name="CollisionShape" type="CollisionShape" parent="birlesik/MeshInstance3/StaticBody"]
shape = SubResource( 21 )

[node name="Area" type="Area" parent="birlesik"]
transform = Transform( 1, 0, 0, 0, 0.1, 0, 0, 0, 1, -2.0645, 0.185077, -1.63764 )

[node name="CollisionShape" type="CollisionShape" parent="birlesik/Area"]
transform = Transform( 1, 0, 0, 0, 1, 0, 0, 0, 1, 0, -0.057, 0 )
shape = SubResource( 24 )

[node name="MeshInstance4" type="MeshInstance" parent="birlesik"]
transform = Transform( 0.8, 0, 0, 0, 0.01, 0, 0, 0, 0.02, 0.357, 0.19, 2.689 )
mesh = SubResource( 26 )

[node name="StaticBody" type="StaticBody" parent="birlesik/MeshInstance4"]

[node name="CollisionShape" type="CollisionShape" parent="birlesik/MeshInstance4/StaticBody"]
shape = SubResource( 27 )

[node name="MeshInstance5" type="MeshInstance" parent="birlesik"]
transform = Transform( 0.8, 0, 0, 0, 0.01, 0, 0, 0, 0.02, 0.357, 0.19, 2.948 )
mesh = SubResource( 26 )

[node name="StaticBody" type="StaticBody" parent="birlesik/MeshInstance5"]

[node name="CollisionShape" type="CollisionShape" parent="birlesik/MeshInstance5/StaticBody"]
shape = SubResource( 28 )

[node name="MeshInstance6" type="MeshInstance" parent="birlesik"]
transform = Transform( 0.000202664, 0, -0.139885, 0, 0.05, 0, 0.00499589, 0, 0.0056746, 1.99919, 0.225527, 2.94884 )
mesh = SubResource( 18 )

[node name="StaticBody" type="StaticBody" parent="birlesik/MeshInstance6"]

[node name="CollisionShape" type="CollisionShape" parent="birlesik/MeshInstance6/StaticBody"]
shape = SubResource( 19 )

[node name="MeshInstance7" type="MeshInstance" parent="birlesik"]
transform = Transform( 0.15, 0, 0, 0, 0.001, 0, 0, 0, 5, -2.109, 0.19, -0.744 )
mesh = SubResource( 29 )

[node name="MeshInstance8" type="MeshInstance" parent="birlesik"]
transform = Transform( -6.55671e-09, 0, 5, 0, 0.001, 0, -0.15, 0, -2.18557e-07, -0.609, 0.19, 2.81 )
mesh = SubResource( 29 )

[node name="MeshInstance9" type="MeshInstance" parent="birlesik"]
transform = Transform( 0.15, 0, 0, 0, 0.001, 0, 0, 0, 3, 2.03093, 0.190238, 1.30218 )
mesh = SubResource( 29 )

[node name="player" parent="." instance=ExtResource( 1 )]
transform = Transform( -1, 0, 8.74228e-08, 0, 1, 0, -8.74228e-08, 0, -1, -210, 0.28, -239.862 )
script = ExtResource( 2 )

[node name="RigidBody" type="RigidBody" parent="player"]
transform = Transform( 1, 0, 0, 0, 1, 0, 0, 0, 1, 0, 0.68, 0 )

[node name="CollisionShape" type="CollisionShape" parent="player/RigidBody"]
shape = SubResource( 9 )

[node name="RayCast" type="RayCast" parent="player"]
transform = Transform( 3, 0, 0, 0, 1, 0, 0, 0, 1, 0, 0, 0 )
enabled = true
cast_to = Vector3( 0, 0, -35 )

[node name="RayCast2" type="RayCast" parent="player"]
enabled = true
cast_to = Vector3( -15, 0, -20 )

[node name="RayCast3" type="RayCast" parent="player"]
enabled = true
cast_to = Vector3( 15, 0, -20 )

[node name="maxhazirlikaaggaaa" parent="player" instance=ExtResource( 5 )]
transform = Transform( 69, 0, 0, 0, 60, 0, 0, 0, 60, -0.182, 0.5, -0.67 )

[node name="DirectionalLight" type="DirectionalLight" parent="player"]
transform = Transform( 0.967599, 0.252492, 2.83257e-09, -0.252492, 0.967599, 2.20735e-08, 2.83259e-09, -2.20735e-08, 1, 116.313, 143.685, -65.0248 )
shadow_enabled = true

[node name="Area" type="Area" parent="player"]
transform = Transform( 1, 0, 0, 0, 0.1, 0, 0, 0, 5, -9.15527e-05, 0, -26.9873 )

[node name="CollisionShape" type="CollisionShape" parent="player/Area"]
transform = Transform( 8, 0, 0, 0, 1, 0, 0, 0, 8, 0, -3.315, 1.90582 )
shape = SubResource( 25 )

[node name="RayCast4" type="RayCast" parent="player"]
enabled = true
cast_to = Vector3( 10, 0, -20 )

[node name="RayCast5" type="RayCast" parent="player"]
enabled = true
cast_to = Vector3( -10, 0, -20 )

[node name="RayCast6" type="RayCast" parent="player"]
enabled = true
cast_to = Vector3( 5, 0, -20 )

[node name="RayCast7" type="RayCast" parent="player"]
enabled = true
cast_to = Vector3( -5, 0, -20 )

[node name="enemy" parent="." instance=ExtResource( 1 )]
transform = Transform( -1, 0, -8.74228e-08, 0, 1, 0, 8.74228e-08, 0, -1, -210, 0.28, 242.103 )
script = ExtResource( 4 )

[node name="RigidBody" type="RigidBody" parent="enemy"]
transform = Transform( 1, 0, 0, 0, 1, 0, 0, 0, 1, 0, 0.67952, 0 )

[node name="CollisionShape" type="CollisionShape" parent="enemy/RigidBody"]
transform = Transform( 1, 0, 0, 0, 2, 0, 0, 0, 5, 0, 0, 0 )
shape = SubResource( 23 )

[node name="RayCast" type="RayCast" parent="enemy"]
transform = Transform( 1, 0, 0, 0, 1, 0, 0, 0, 1, 0, 0, -0.0842133 )
enabled = true
cast_to = Vector3( 0, 0, -35 )

[node name="RayCast2" type="RayCast" parent="enemy"]
transform = Transform( -0.984368, 0, 0.176123, 0, 1, 0, -0.176123, 0, -0.984368, 0, 0, 0 )
enabled = true
cast_to = Vector3( 15, 0, 15 )

[node name="RayCast3" type="RayCast" parent="enemy"]
enabled = true
cast_to = Vector3( 10, 0, -10 )

[node name="Area" type="Area" parent="."]
transform = Transform( 1, 0, 0, 0, 1, 0, 0, 0, 1, 441.18, 2.09836, -139.192 )

[node name="CollisionShape" type="CollisionShape" parent="Area"]
transform = Transform( 100, 0, 0, 0, 1, 0, 0, 0, 100, -1.79648, 0, 0 )
shape = SubResource( 22 )

[node name="follow" type="Spatial" parent="."]
transform = Transform( -1, 0, 8.74228e-08, 0, 1, 0, -8.74228e-08, 0, -1, -210.139, 9.41561, -272.535 )
script = ExtResource( 3 )

[node name="ChaseCamera" type="Camera" parent="follow"]
transform = Transform( 1, 0, -4.26326e-14, 0, 1, 0, 4.26326e-14, 0, 1, 0, 8.22079, 19.2264 )
cull_mask = 1047553
current = true
far = 200.0

[node name="enemy2" parent="." instance=ExtResource( 1 )]
transform = Transform( -1, 0, -8.74228e-08, 0, 1, 0, 8.74228e-08, 0, -1, -210, 0.28, 261.575 )
script = ExtResource( 4 )

[node name="RigidBody" type="RigidBody" parent="enemy2"]
transform = Transform( 1, 0, 0, 0, 1, 0, 0, 0, 1, 0, 0.67952, 0 )

[node name="CollisionShape" type="CollisionShape" parent="enemy2/RigidBody"]
transform = Transform( 1, 0, 0, 0, 2, 0, 0, 0, 5, 0, 0, 0 )
shape = SubResource( 23 )

[node name="RayCast" type="RayCast" parent="enemy2"]
transform = Transform( 1, 0, 0, 0, 1, 0, 0, 0, 1, 0, 0, -0.0842133 )
enabled = true
cast_to = Vector3( 0, 0, -35 )

[node name="RayCast2" type="RayCast" parent="enemy2"]
transform = Transform( -0.984368, 0, 0.176123, 0, 1, 0, -0.176123, 0, -0.984368, 0, 0, 0 )
enabled = true
cast_to = Vector3( 15, 0, 15 )

[node name="RayCast3" type="RayCast" parent="enemy2"]
enabled = true
cast_to = Vector3( 10, 0, -10 )

[node name="enemy3" parent="." instance=ExtResource( 1 )]
transform = Transform( -1, 0.00010472, -8.74228e-08, 0.00010472, 1, 0, 8.74228e-08, -9.15489e-12, -1, -210, 0.993545, 181.04 )
script = ExtResource( 4 )

[node name="RigidBody" type="RigidBody" parent="enemy3"]
transform = Transform( 1, 0, 0, 0, 1, 0, 0, 0, 1, 0, 0.67952, 0 )

[node name="CollisionShape" type="CollisionShape" parent="enemy3/RigidBody"]
transform = Transform( 1, 0, 0, 0, 2, 0, 0, 0, 5, 0, 0, 0 )
shape = SubResource( 23 )

[node name="RayCast" type="RayCast" parent="enemy3"]
transform = Transform( 1, 0, 0, 0, 1, 0, 0, 0, 1, 0, 0, -0.0842133 )
enabled = true
cast_to = Vector3( 0, 0, -35 )

[node name="RayCast2" type="RayCast" parent="enemy3"]
transform = Transform( -0.984368, -1.09139e-11, 0.176123, -5.82077e-11, 1, 0, -0.176123, 0, -0.984368, 0, 0, 0 )
enabled = true
cast_to = Vector3( 15, 0, 15 )

[node name="RayCast3" type="RayCast" parent="enemy3"]
enabled = true
cast_to = Vector3( 10, 0, -10 )

[node name="enemy4" parent="." instance=ExtResource( 1 )]
transform = Transform( -1, 0, -8.74228e-08, 0, 1, 0, 8.74228e-08, 0, -1, 400.988, -0.0423646, 207.022 )
script = ExtResource( 6 )

[node name="RigidBody" type="RigidBody" parent="enemy4"]
transform = Transform( 1, 0, 0, 0, 1, 0, 0, 0, 1, 0, 0.67952, 0 )

[node name="CollisionShape" type="CollisionShape" parent="enemy4/RigidBody"]
transform = Transform( 1, 0, 0, 0, 2, 0, 0, 0, 5, 0, 0, 0 )
shape = SubResource( 23 )

[node name="RayCast" type="RayCast" parent="enemy4"]
transform = Transform( 1, 0, 0, 0, 1, 0, 0, 0, 1, 0, 0, -0.0842133 )
enabled = true
cast_to = Vector3( 0, 0, -30 )

[node name="RayCast2" type="RayCast" parent="enemy4"]
transform = Transform( -0.984368, 0, 0.176123, 0, 1, 0, -0.176123, 0, -0.984368, 0, 0, 0 )
enabled = true
cast_to = Vector3( 15, 0, 15 )

[node name="RayCast3" type="RayCast" parent="enemy4"]
enabled = true
cast_to = Vector3( 15, 0, -15 )

[node name="enemy5" parent="." instance=ExtResource( 1 )]
transform = Transform( -1, 0.00010472, -8.74228e-08, 0.00010472, 1, 0, 8.74228e-08, -9.15489e-12, -1, -210, 0.993545, 151.987 )
script = ExtResource( 4 )

[node name="RigidBody" type="RigidBody" parent="enemy5"]
transform = Transform( 1, 0, 0, 0, 1, 0, 0, 0, 1, 0, 0.67952, 0 )

[node name="CollisionShape" type="CollisionShape" parent="enemy5/RigidBody"]
transform = Transform( 1, 0, 0, 0, 2, 0, 0, 0, 5, 0, 0, 0 )
shape = SubResource( 23 )

[node name="RayCast" type="RayCast" parent="enemy5"]
transform = Transform( 1, 0, 0, 0, 1, 0, 0, 0, 1, 0, 0, -0.0842133 )
enabled = true
cast_to = Vector3( 0, 0, -35 )

[node name="RayCast2" type="RayCast" parent="enemy5"]
transform = Transform( -0.984368, -1.09139e-11, 0.176123, -5.82077e-11, 1, 0, -0.176123, 0, -0.984368, 0, 0, 0 )
enabled = true
cast_to = Vector3( 15, 0, 15 )

[node name="RayCast3" type="RayCast" parent="enemy5"]
enabled = true
cast_to = Vector3( 10, 0, -10 )

[node name="enemy6" parent="." instance=ExtResource( 1 )]
transform = Transform( -1, 0.00010472, -8.74228e-08, 0.00010472, 1, 0, 8.74228e-08, -9.15489e-12, -1, -197.934, 0.993545, 181.04 )
script = ExtResource( 4 )

[node name="RigidBody" type="RigidBody" parent="enemy6"]
transform = Transform( 1, 0, 0, 0, 1, 0, 0, 0, 1, 0, 0.67952, 0 )

[node name="CollisionShape" type="CollisionShape" parent="enemy6/RigidBody"]
transform = Transform( 1, 0, 0, 0, 2, 0, 0, 0, 5, 0, 0, 0 )
shape = SubResource( 23 )

[node name="RayCast" type="RayCast" parent="enemy6"]
transform = Transform( 1, 0, 0, 0, 1, 0, 0, 0, 1, 0, 0, -0.0842133 )
enabled = true
cast_to = Vector3( 0, 0, -35 )

[node name="RayCast2" type="RayCast" parent="enemy6"]
transform = Transform( -0.984368, -1.09139e-11, 0.176123, -5.82077e-11, 1, 0, -0.176123, 0, -0.984368, 0, 0, 0 )
enabled = true
cast_to = Vector3( 15, 0, 15 )

[node name="RayCast3" type="RayCast" parent="enemy6"]
enabled = true
cast_to = Vector3( 10, 0, -10 )

[node name="enemy7" parent="." instance=ExtResource( 1 )]
transform = Transform( -4.37114e-08, 4.57745e-12, -1, 0.00010472, 1, 0, 1, -0.00010472, -4.37114e-08, -1.93124, 0.993545, 433.422 )
script = ExtResource( 4 )

[node name="RigidBody" type="RigidBody" parent="enemy7"]
transform = Transform( 1, 0, 0, 0, 1, 0, 0, 0, 1, 0, 0.67952, 0 )

[node name="CollisionShape" type="CollisionShape" parent="enemy7/RigidBody"]
transform = Transform( 1, 0, 0, 0, 2, 0, 0, 0, 5, 0, 0, 0 )
shape = SubResource( 23 )

[node name="RayCast" type="RayCast" parent="enemy7"]
transform = Transform( 1, 0, 0, 0, 1, 0, 0, 0, 1, 0, 0, -0.0842133 )
enabled = true
cast_to = Vector3( 0, 0, -35 )

[node name="RayCast2" type="RayCast" parent="enemy7"]
transform = Transform( -0.984368, -1.09139e-11, 0.176123, -5.82077e-11, 1, 0, -0.176123, 0, -0.984368, 0, 0, 0 )
enabled = true
cast_to = Vector3( 15, 0, 15 )

[node name="RayCast3" type="RayCast" parent="enemy7"]
enabled = true
cast_to = Vector3( 10, 0, -10 )

[node name="enemy9" parent="." instance=ExtResource( 1 )]
transform = Transform( -1, 0, -8.74228e-08, 0, 1, 0, 8.74228e-08, 0, -1, 400.988, -0.0423646, 305.725 )
script = ExtResource( 6 )

[node name="RigidBody" type="RigidBody" parent="enemy9"]
transform = Transform( 1, 0, 0, 0, 1, 0, 0, 0, 1, 0, 0.67952, 0 )

[node name="CollisionShape" type="CollisionShape" parent="enemy9/RigidBody"]
transform = Transform( 1, 0, 0, 0, 2, 0, 0, 0, 5, 0, 0, 0 )
shape = SubResource( 23 )

[node name="RayCast" type="RayCast" parent="enemy9"]
transform = Transform( 1, 0, 0, 0, 1, 0, 0, 0, 1, 0, 0, -0.0842133 )
enabled = true
cast_to = Vector3( 0, 0, -30 )

[node name="RayCast2" type="RayCast" parent="enemy9"]
transform = Transform( -0.984368, 0, 0.176123, 0, 1, 0, -0.176123, 0, -0.984368, 0, 0, 0 )
enabled = true
cast_to = Vector3( 15, 0, 15 )

[node name="RayCast3" type="RayCast" parent="enemy9"]
enabled = true
cast_to = Vector3( 15, 0, -15 )

[node name="MarginContainer" type="MarginContainer" parent="."]
margin_right = 40.0
margin_bottom = 40.0

[node name="Label" type="Label" parent="MarginContainer"]
margin_top = 13.0
margin_right = 51.0
margin_bottom = 27.0
text = "Score: 0"
script = ExtResource( 8 )

[connection signal="body_entered" from="birlesik/Area" to="follow" method="_on_Area_body_entered"]
[connection signal="body_entered" from="player/Area" to="player" method="_on_Area_body_entered"]
[connection signal="body_exited" from="player/Area" to="player" method="_on_Area_body_exited"]
[connection signal="body_entered" from="Area" to="." method="_on_Area_body_entered"]
